[
      {
          "author": "老毛的酒",
          "link": "https://www.qiushibaike.com/article/125065734",
          "content": "小舅子把女朋友惹生气了，自己离开家出去走了走，后来想想也是自己的不对，于是给女朋友买了礼物回去道歉。\u003cbr/\u003e小舅子：媳妇，我错了，你原谅我吧。\u003cbr/\u003e说完，递上了💄。\u003cbr/\u003e女朋友：嗨~没事，我煲了你最爱喝的汤，快喝吧。\u003cbr/\u003e小舅子：媳妇，你对我真好！我觉得一个💄不能表达我的诚意，等我喝完这碗汤，我们去买上次你看中的那个包吧。\u003cbr/\u003e女朋友：哦~这样啊~，那我们现在就去吧，汤就不要喝了，倒掉就好了呦~\u003cbr/\u003e小舅子：倒~掉~就好~？？？！！！\u003cbr/\u003e那天晚上小舅子花光了攒了半年的私房💰",
          "type": "long"
      },
      {
          "author": "点赞的战斗驴",
          "link": "https://www.qiushibaike.com/article/125068550",
          "content": "昨天休息被媳妇打了，因为中午去寄快递的时候，40多岁的老板娘叫她大姐，而平时上班化妆的时候取快递，老板娘都是叫美女的",
          "type": "hot"
      },
      {
          "author": "我叫布吉岛。。。",
          "link": "https://www.qiushibaike.com/article/124898252",
          "content": "健忘是一种怎样的体验？\u003cbr/\u003e出门忘带钥匙之第一次～～\u003cbr/\u003e“喂，你好！您是开锁公司吗，麻烦来一下某某小区某某单元102”\u003cbr/\u003e“好的！”\u003cbr/\u003e第二次～～\u003cbr/\u003e“喂，你好，还记得我吗？还是上次那个[捂脸]”\u003cbr/\u003e“哦哦，马上过去”\u003cbr/\u003e第三次～～\u003cbr/\u003e“喂，老地方，快点哈”\u003cbr/\u003e第四次～～\u003cbr/\u003e“喂。。。”\u003cbr/\u003e“马上就到！”嘟嘟嘟。。。。",
          "type": "hot"
      },
      {
          "author": "正版煮茶",
          "link": "https://www.qiushibaike.com/article/125070088",
          "content": "侄子做英语听力老是满分，还说英语听力语速很慢。我觉得他吹牛。\u003cbr/\u003e直到有一次我看到他几倍速快进看英文电影，里面的人说话快的叽哩哇啦的，我才知道他英语听力好确实没吹牛。",
          "type": "hot"
      },
      {
          "author": "无书斋主",
          "link": "https://www.qiushibaike.com/article/125068376",
          "content": "元旦，小姨子一家来电说请吃烤肉！\u003cbr/\u003e\u003cbr/\u003e去的路上，我特意叮嘱老婆:你妹请客，你不能买单啊？不是小气，是她们从来没买过单，每次说请客，最后花钱的都是我们……\u003cbr/\u003e\u003cbr/\u003e到了，小姨子说她买了美团套，吃完再加……\u003cbr/\u003e烧烤就酒，天长地久……\u003cbr/\u003e我不管不顾大快朵颐，这一顿，吃得小姨子内伤……\u003cbr/\u003e\u003cbr/\u003e现在，我没去上班，在打点滴！……\u003cbr/\u003e扁桃体发炎，那顿烧烤害的！！……",
          "type": "hot"
      },
      {
          "author": "陈一默",
          "link": "https://www.qiushibaike.com/article/124980876",
          "content": "给媳妇打电话说晚上有应酬，媳妇说刚好她也约了一个男的吃饭。她说好不容易约一次，男的还给她转了两千块钱。\u003cbr/\u003e我突然觉得心口有点痛：媳妇，这样吧，你别出去了，我给你转五千，你做饭，我马上回家。\u003cbr/\u003e一进门，听到媳妇正打电话：三叔，我老公不让我和你吃饭……\u003cbr/\u003e我赶紧抢过电话：我们马上就到，一会儿见！\u003cbr/\u003e媳妇关心地说：你心脏疼就别出去了。\u003cbr/\u003e疼死也要去，五千块啊，能吃回多少算多少……",
          "type": "hot"
      },
      {
          "author": "读书的牛",
          "link": "https://www.qiushibaike.com/article/124970407",
          "content": "宝贝女儿嫌学校饭菜不好吃！我就给她痛说革命家史。告诉她爸爸小时候一个月能吃两回肉就已经很幸福了！天天只能吃青菜萝卜南瓜冬瓜加豆角。说到动情处，宝贝女儿说了一句：那你为什么还这么胖？！这话噎着我一口老血喷出来，差点就……………………！[捂脸][捂脸][捂脸][捂脸][捂脸][捂脸][捂脸][捂脸][捂脸][捂脸][捂脸]",
          "type": "hot"
      },
      {
          "author": ".白夜行.",
          "link": "https://www.qiushibaike.com/article/124934804",
          "content": "刚在吃橘子，吃着吃着我就哭了，橘子都有瓣儿，我却没有",
          "type": "hot"
      },
      {
          "author": "怂包妇女主任",
          "link": "https://www.qiushibaike.com/article/124984894",
          "content": "多年的一个老朋友了，向来很有女人缘，从小到大都混女人堆的。\u003cbr/\u003e今天特地打电话给我说他28大寿，让我过去喝两杯，说有很多妹子会来捧场。\u003cbr/\u003e精心打扮，早早就过去捧场了，他很高兴:邀请妹子们还没到，我们先喝点。\u003cbr/\u003e喝了几大杯闹心期待，在上头中，一大群花花绿绿的阿姨手捧鲜花和各种生日礼物走进了包间。\u003cbr/\u003e我附在朋友耳边:你从哪里拔的这些老葱？\u003cbr/\u003e朋友热情给我介绍:这些大妹子都是我在跳广场舞认识的呦，热情开朗又活泼，来来来。都认识下。。。",
          "type": "hot"
      },
      {
          "author": "红栀6",
          "link": "https://www.qiushibaike.com/article/125030266",
          "content": "深夜，我跟老婆在一起：“老婆！你叫嘛！你叫才好玩一点啊！”老婆道：“不嘛！我才不叫呢！”我急了，喊道：“快叫！你这个折磨人的小妖精”老婆拍了我一下：“嘘，你小点声！邻居都睡了！”“那你叫啊！”“嗯。。。叫地主！”",
          "type": "hot"
      },
      {
          "author": "冷砚",
          "link": "https://www.qiushibaike.com/article/124915187",
          "content": "清早上班，空气中飘过一阵类似油茶的香气。\u003cbr/\u003e我吸了吸鼻子问司机师傅：“师傅，附近那家饭馆这么香？”\u003cbr/\u003e司机笑着说：“早上没吃饭吧？你是不是饿了？”\u003cbr/\u003e我说：“你咋知道？”\u003cbr/\u003e司机坏笑道：“嗯！这附近有一个饲料加工厂……”",
          "type": "hot"
      },
      {
          "author": "老巫婆～～",
          "link": "https://www.qiushibaike.com/article/124894343",
          "content": "虎子在有钱的舅舅家学会了喝威士忌，还深沉的加绿茶一起喝。回来炫耀给胖丫听，炫耀完还问胖丫：“没喝过吧～”\u003cbr/\u003e胖丫想了想说：“我可能和你有点不太一样，我喜欢跟绿茶一起喝威士忌”。\u003cbr/\u003e虎子：？？？",
          "type": "hot"
      },
      {
          "author": "寒山宽洪",
          "link": "https://www.qiushibaike.com/article/124889684",
          "content": "天下大雪，姓刘的，姓白的，姓黑的，姓回的，四人凑一桌麻将。能说会道的老刘问老回：姓白和姓黑的结婚生孩子姓什么？老回说当然要随父姓。老刘不紧不慢的讲：如今男女平等，随母性的也不少，公平的说，应该姓灰。",
          "type": "hot"
      },
      {
          "author": "知——秋",
          "link": "https://www.qiushibaike.com/article/124940163",
          "content": "今天和朋友出去走走，路过一条小溪看见有一条大鱼，很想抓，但是我们没网，突然，朋友边跑边大声喊：“你在这里看着鱼，别让它跑了，我回家拿网。”留我一个人在那里迷茫：它要跑，我还拦得住它吗?",
          "type": "hot"
      },
      {
          "author": "浪漫的小乞丐",
          "link": "https://www.qiushibaike.com/article/125068110",
          "content": "上班途中看到个美女，虽然戴着口罩但是从她眉毛上扬的神态能看出来对我笑了。在不久后我就突然绝觉得有人在拉着我，浑身不得劲。工作上不停的失误，最后主管跑过来不停的骂我说小乞丐，你咋的了？平时那么细心的你今天这么小的错误也犯。我十分抱歉的说对不起，还告诉主管今天碰到一个美女后，浑身不得劲，总觉得有人拉着我。主管看了我一眼说：那是你衣服穿反了，所以才觉得有人拉你。",
          "type": "hot"
      },
      {
          "author": "喜欢就是淡淡滴爱",
          "link": "https://www.qiushibaike.com/article/125033882",
          "content": "本人幼师，有一男家长长的虎背熊腰，看起来特凶。\u003cbr/\u003e一日开家长会，此家长问我，老师，有事可不可以不来？\u003cbr/\u003e我问，有什么事呢？\u003cbr/\u003e他说，今天有个兄弟从牢里出来，去给他接风洗尘。\u003cbr/\u003e我连忙说，好好好，有事就不用来了，这可是大喜事啊......",
          "type": "hot"
      },
      {
          "author": "小鸟小鸟小鸟",
          "link": "https://www.qiushibaike.com/article/124976812",
          "content": "老婆闺蜜因出轨，带着和情人生的儿子净身出户。因无收入来源，日子紧巴巴的。和老婆视频聊天时，突然闺蜜就哭起来了。过后老婆唏嘘不已：我闺蜜多可怜，现在挣的钱都不够房租!\u003cbr/\u003e我试探着说：你们两个关系这么好，咱能帮就帮，要不让她住到咱家来吧！\u003cbr/\u003e老婆踹了我一脚：滚！",
          "type": "hot"
      },
      {
          "author": "叶子讲段子",
          "link": "https://www.qiushibaike.com/article/125053345",
          "content": "这个天气可真冷啊！昨天晚上下班冻的我瑟瑟发抖，走在路上看见一辆轿车比我情况还要严重…….....",
          "type": "hot"
      },
      {
          "author": "中国加油！！",
          "link": "https://www.qiushibaike.com/article/124992894",
          "content": "下午我独自坐在星巴克喝咖啡。突然一小男孩跑过来问：姐姐，你是来相亲的吗？我说不是。然后他对着外面一帅哥说：叔叔进来吧！放心吧不是她啦！",
          "type": "hot"
      },
      {
          "author": "陈一默",
          "link": "https://www.qiushibaike.com/article/124977580",
          "content": "散了会，我去了卫生间，“隔壁”同事问我：老板让咱部门提出解决办法，下午交方案，这可怎么办？\u003cbr/\u003e我慢悠悠地说：我早写好了两个方案，下午交一个，老板让修改时，再交另一个。\u003cbr/\u003e同事：为什么不马上给老板？怎么还有第二个方案？\u003cbr/\u003e我：以我在这个圈摸爬滚打十年的经验，给老板的报告要故意留下纰漏，这个纰漏必须轻易能发现，而且能很轻松地改正，这样我和老板都轻松。\u003cbr/\u003e话没说完，外面传来老板的声音：不用补充了，把你的两套报告都拿给我看……\u003cbr/\u003e老板，等等，我腿蹲麻了……",
          "type": "hot"
      },
      {
          "author": "哇塞～丨叔丨",
          "link": "https://www.qiushibaike.com/article/124949193",
          "content": "第一次带儿子参加葬礼，儿子看着收礼金的两个人面前摆着一盘瓜子，大家排着队递二百块钱，然后抓把瓜子……\u003cbr/\u003e儿子拉着我的裤腿，眼睛放光的说：“爸爸，咱们也摆个摊卖瓜子吧！”",
          "type": "hot"
      },
      {
          "author": "浪漫的小乞丐",
          "link": "https://www.qiushibaike.com/article/124995779",
          "content": "儿子的班主任是我从小到大的老同学，这个休息天在班级家长群里布置了亲子作业，就是陪孩子画画，写作业。\u003cbr/\u003e然后发群里，果然还是老同学，给我的评价很高，她是这么评论的：老同学你写字水平还是小学生的样子了，画画水平还停留在幼儿园的风格[呲牙]",
          "type": "hot"
      },
      {
          "author": "猪头小小败",
          "link": "https://www.qiushibaike.com/article/124992257",
          "content": "小的时候我和弟弟妹妹们一起看了山村老尸\u003cbr/\u003e第二天一大早就看见弟弟在挨打，舅妈说弟弟在家门口撒尿\u003cbr/\u003e问他什么原因？他说晚上实在是太害怕鬼了，想到以前看英叔的电影，说童子尿最有用，所以他半夜起来在家门口撒了一泡尿",
          "type": "hot"
      },
      {
          "author": "点赞的战斗驴",
          "link": "https://www.qiushibaike.com/article/124959057",
          "content": "今天大同下雪了，群里发两点去扫雪，领了雪铲，就去我们办公室的责任区，到了责任区发现领导已经开始铲了，我赶紧扛着雪铲小跑到领导面前，没想到一个脚滑滑倒了，还顺便用扛着的雪铲拍了领导的屁股……",
          "type": "hot"
      },
      {
          "author": "猪头小小败",
          "link": "https://www.qiushibaike.com/article/124962362",
          "content": "现在幼儿园里面的小孩都是什么名字呀？怎么听我的？小侄儿提到同学不是肚子疼，就是肚子圆，就是肘子寒\u003cbr/\u003e[捂脸][捂脸][捂脸]",
          "type": "hot"
      },
      {
          "author": "冷砚",
          "link": "https://www.qiushibaike.com/article/125057621",
          "content": "学弟学妹互相爱慕，但两人都是“爱你在心口难开”。\u003cbr/\u003e我约他们一起吃火锅跨年。趁着学弟去洗手间，我跟学妹说：你多吃点血豆腐，然后喝一口红酒，别咽下去，“吐”他身上……看学妹一脸懵逼，我说：你就说你得了重病，恐怕命不久矣，看他怎么说。\u003cbr/\u003e学弟回来了，我借故走到旁边，学妹戏精附体，表演非常到位，我走过去准备再“加把火”，没想到学弟对我吼道：你给她吃什么了？她中毒啦！说完抱起学妹向停车场跑去……\u003cbr/\u003e主任，真没我什么事，他们俩愿意在急诊室跨年，您不能安排我值班啊！",
          "type": "long"
      },
      {
          "author": "微笑.天使",
          "link": "https://www.qiushibaike.com/article/124955676",
          "content": "早上起床有点晚，正在刷牙的时候，媳妇跑来说：你朋友打电话呢。\u003cbr/\u003e我：先帮我接下。媳妇打开免提：他现在有事，嘴不能说话。朋友问咋了？\u003cbr/\u003e媳妇：你猜是什么情况下他不方便说话。\u003cbr/\u003e然后朋友哇靠一声把电话挂了",
          "type": "hot"
      },
      {
          "author": "冷砚",
          "link": "https://www.qiushibaike.com/article/125059403",
          "content": "接到好几个私聊，要陪我云跨年。我说有点累，睡了。\u003cbr/\u003e有人说，这么早，睡得着吗？还有人说，睡这么早一定有人陪。\u003cbr/\u003e没错，有人陪着呢，一个疼我疼得死去活来的亲戚一直陪着我，从来都是不离不弃的……\u003cbr/\u003e寂寞与暗夜同黑，心情共腹痛一色，恍恍惚惚，红红火火……",
          "type": "hot"
      },
      {
          "author": "啊哈儿老师",
          "link": "https://www.qiushibaike.com/article/125048448",
          "content": "单位听来的。。。师傅来给修洗衣机，修好了以后，女主人拉着师傅不让走，非得和师傅处对象，身体还贴上去，给修洗衣机师傅吓的，修理费也不要了，赶快收拾工具，跑了，女主人等她对相回来告诉她对相，今天修洗衣机也没花钱，他对相夸赞他，听到了细节，俩人就打起来了",
          "type": "hot"
      },
      {
          "author": "老巫婆～～",
          "link": "https://www.qiushibaike.com/article/124991524",
          "content": "虎子感慨：当年《泰坦尼克号》出海的时候，我就大喊别去别去，会沉船的，嗓子都喊哑了。他们不仅不信，还把我赶出了电影院。\u003cbr/\u003e胖丫：？？？",
          "type": "hot"
      },
      {
          "author": "老巫婆～～",
          "link": "https://www.qiushibaike.com/article/124901411",
          "content": "虎子处在叛逆期的年龄。对于叛逆期的虎子，虎爸在打骂无用之后试着理解包容，并尝试建立共同话题。\u003cbr/\u003e有次虎爸推开虎子的房间门看见屋内烟雾缭绕，还有不锈钢盘子里烧完的灰烬，再联想虎子最近看的修道小说。\u003cbr/\u003e虎爸憋了半天僵硬着脸温柔的问道：“额～在做法 事呢？”\u003cbr/\u003e虎子：“？？？！爸，我在做实验作业呢！”",
          "type": "hot"
      },
      {
          "author": "娇滴滴小猫咪",
          "link": "https://www.qiushibaike.com/article/125041132",
          "content": "最近的天气 让我觉得每次开门，都像在开冰箱",
          "type": "hot"
      },
      {
          "author": "影子鹿犬",
          "link": "https://www.qiushibaike.com/article/124950907",
          "content": "刚工作的时候疯跑，迎面撞到了一男生，门牙怼到了人脑门上，他脑门上一排门牙印，我害怕极了，只能装着满地找牙，还挤出几滴眼泪哭了着说:我牙呢我牙呢？",
          "type": "hot"
      },
      {
          "author": "OldTie",
          "link": "https://www.qiushibaike.com/article/124964219",
          "content": "最近老是刷到一些教什么女子防身术的，真没用！\u003cbr/\u003e女生收的惊吓本能的都是害怕，除非你有绝对的优势，认为能制服他，否则都是白搭！\u003cbr/\u003e举个例子，我一个姐姐，省摔跤冠军，200来斤的体格，晚上下夜班，碰上个不长眼的抢她包，就这体格当时就给吓哭了，但是长期的训练，形成了一定的肌肉记忆和条件反射，一边嚎嚎大哭一边跟训练似的不停的摔那个抢劫的……那画面太美……后来有人发现报警了，警察来了，要不是有监控，警察都以为她是抢劫的，因为抢劫的那哥们被摔晕了，别人看到的是她一直在那摔别人……",
          "type": "hot"
      },
      {
          "author": "安稳顺遂",
          "link": "https://www.qiushibaike.com/article/125038377",
          "content": "有一同事，简直奇葩35岁，纯纯单身，带他去玩电子游戏，就是赛车，遇到了两个女孩，上去搭讪，他不敢，我和她们聊的挺开心，最后要走了，我说我还有几个游戏币不要了，你去送给她们，很明显，让他要联系方式，他去了，但是竟然拍拍人家肩膀说，我们不玩了，给你们吧，然后直接走了，走了？",
          "type": "hot"
      },
      {
          "author": "猴.胖.子",
          "link": "https://www.qiushibaike.com/article/124967223",
          "content": "做程序员15年，唯一一次顶撞领导。他问我，停电时，程序怎么保存数据？嗯？？？？？这尼玛相当于是问，人已经死了，问他银行卡密码是啥？\u003cbr/\u003e\u003cbr/\u003e后来我就改行卖ups了，娃嘎嘎",
          "type": "hot"
      },
      {
          "author": "、来自火星球的我",
          "link": "https://www.qiushibaike.com/article/124969549",
          "content": "记得在我读初中那会儿，数学老师是我们班主任，他经常给我们挖坑。记得有一次他自己出了一张卷子给我们考试，二十道选择题，正确答案全部都选C。大家做得是提心吊胆的，交完卷后很多同学心里也是没底。第二天班主任边讲卷子边对大家说：“惊不惊喜意不意外，玩的就是心跳！”",
          "type": "hot"
      },
      {
          "author": "秋水泛滥",
          "link": "https://www.qiushibaike.com/article/125034918",
          "content": "在东北农村长大，平时家里也没什么吃的，偶尔要是有点好吃的，就会天天惦记着。\u003cbr/\u003e有一次，家里买了几根麻花放在橱柜里，我就一直惦记着，可是那天家里人都去干农活把房门锁上了。我放学回到家，既进不去屋，也吃不到麻花。\u003cbr/\u003e幸好我足够聪明，我怂恿邻居家的小朋友，把我们家的玻璃给砸了，然后我们两个跳窗户进屋里把麻花吃掉了。",
          "type": "hot"
      },
      {
          "author": "我叫布吉岛。。。",
          "link": "https://www.qiushibaike.com/article/124903476",
          "content": "我觉得我还是不能做好事\u003cbr/\u003e有次出门溜达，碰到个问路的，问七路公交总站在哪，我立马给她指明了方向，然后她就带着感激之情去了。\u003cbr/\u003e溜达了一段路我突然想起来，我给她指的是老站，新站就在她问路的那个地方附近。。。",
          "type": "hot"
      },
      {
          "author": "秋水泛滥",
          "link": "https://www.qiushibaike.com/article/124949750",
          "content": "晚上给儿子讲书：项羽看到秦始皇威武的仪仗时，说到，彼，可取而代之。\u003cbr/\u003e儿子问，爸爸，项羽看到秦始皇为什么要说脏话啊？\u003cbr/\u003e我：啊？……啊！因为这*可取而代之。",
          "type": "hot"
      },
      {
          "author": "吃了两碗又盛",
          "link": "https://www.qiushibaike.com/article/124930943",
          "content": "我儿子是化学课代表，他考同学化学方程式总有几个不会的。昨天早上上学前儿子发狠说一定让那几个背会，背不对不让他们吃午饭。\u003cbr/\u003e晚上儿子回来我问他效果怎么样，儿子说:别提了，好几个人围着我让我考，我午饭都没吃上。",
          "type": "hot"
      },
      {
          "author": "空城旧梦她与伞",
          "link": "https://www.qiushibaike.com/article/124934314",
          "content": "那天刚出差回来，得知媳妇在加班，于是去住不远的大舅子家蹭饭。\u003cbr/\u003e\u003cbr/\u003e到大舅子家时，好家伙，他家桌上已经摆了几个菜，有韭菜炒蛋、蒜蓉生蚝、辣椒炒猪腰、排骨枸杞汤、秋葵炒肉。\u003cbr/\u003e\u003cbr/\u003e吃完后，大舅子执意要亲自送我回去，一路无话 ，到我家后，媳妇也下班回家了。\u003cbr/\u003e\u003cbr/\u003e大舅子和我媳妇打了声招呼，附在我耳旁嘿嘿一笑：我和你嫂子，是打算要二胎，才炒那些菜吃，你小子今晚吃那么多，这一路上又那么多小 巷子，我不放心你小子。\u003cbr/\u003e\u003cbr/\u003e说完谢绝了我们说上去坐坐的邀请，转身就走。\u003cbr/\u003e\u003cbr/\u003e第二天，我去交了五百块钱 罚 款，才把大舅子领了出来。",
          "type": "hot"
      },
      {
          "author": "归疚Š",
          "link": "https://www.qiushibaike.com/article/124988738",
          "content": "大仙本来想买件羽绒服，但是要3000多，他问我要不要买？我问他感冒药多少钱？大仙说也就一两百吧！我上去就给他两巴掌，打完后问他，一两百能解决问题为什么要花三千，日子还过不过了？他自己说日子还是要过的，他以后多喝点热水，争取不买感冒药，喝热水就能解决的事为什么要花钱，瞬间感觉他懂事了不少，跪搓衣板就这么愉快取消了",
          "type": "hot"
      },
      {
          "author": "木子：李",
          "link": "https://www.qiushibaike.com/article/125050199",
          "content": "给女性朋友的六个建议：（1）找个能让你笑的男人。（2）找个有稳定工作的男人。（3）找个喜欢做家务的男人。（4）找个诚实的男人。（5）找个和你能契合的男人。（6）不要让他们五个人见面。",
          "type": "hot"
      },
      {
          "author": "吃了两碗又盛",
          "link": "https://www.qiushibaike.com/article/124961411",
          "content": "有这么一个女邻居，我管她叫嫂子，她管我妈叫嫂子，我妈管她妈叫嫂子。\u003cbr/\u003e\u003cbr/\u003e那么问题来了，她闺女管我叫什么？",
          "type": "hot"
      },
      {
          "author": "无书斋主",
          "link": "https://www.qiushibaike.com/article/124995337",
          "content": "周四单位新来了个行政主管，晚上给他接风！\u003cbr/\u003e他敬酒时，一桌十多个人，每个人一杯，唯独撇下了我！\u003cbr/\u003e散场的时间，有人窃窃私语:这行政主管肯定和正哥关系不好，酒都没敬！！……\u003cbr/\u003e\u003cbr/\u003e三人成虎，周五整个单位都说我和他有过节！！\u003cbr/\u003e\u003cbr/\u003e能有什么过节？不就是一杯酒吗？今天他给我送了一箱！！\u003cbr/\u003e不，说错了，应该说他不要的酒给了我一箱！！\u003cbr/\u003e\u003cbr/\u003e我们是同学，一起“上过山”的同学！",
          "type": "hot"
      },
      {
          "author": "南九",
          "link": "https://www.qiushibaike.com/article/125012416",
          "content": "初二那年，我说啥也不念了。\u003cbr/\u003e咯咯咯……\u003cbr/\u003e在家里待了两个多月，无聊透顶。我二叔介绍我去他同学的修车厂学技术。\u003cbr/\u003e说是修车厂，其实加老板才五个人。老板带两个技术工修车，我和另一个人算学徒，可是我很笨，记不住步骤。\u003cbr/\u003e有一次补完轮胎，老板让我把轮胎拿到墙跟去，我两手抓着轮胎，没拿起来，就喊另一个学徒:保利，帮我抬一下轮胎。\u003cbr/\u003e老板一皱眉，对我说:你滚那……",
          "type": "hot"
      },
      {
          "author": "北方狼叔",
          "link": "https://www.qiushibaike.com/article/124973783",
          "content": "因为感情不和跟前女友分手，她有些伤心，晚上和她表姐，表妹还有闺蜜一起喝酒。边喝边骂，后来可能她觉得一个人骂不过瘾，于是我手机上就收到了她表姐，表妹还有闺蜜一条条骂我的短信。。。。\u003cbr/\u003e这些都是她表妹后来告诉我的。",
          "type": "hot"
      },
      {
          "author": "皇后奶奶",
          "link": "https://www.qiushibaike.com/article/125035845",
          "content": "跟领导一起借着送货的名义偷偷溜出去买奶茶\u003cbr/\u003e结果喝到一半我下车拿东西\u003cbr/\u003e等我拿完东西回来\u003cbr/\u003e这二百五喝错了！！！\u003cbr/\u003e把我的喝完了！！\u003cbr/\u003e现在他准备回去刷十遍牙\u003cbr/\u003e我准备戒奶茶！！",
          "type": "hot"
      },
      {
          "author": "YAOXXR",
          "link": "https://www.qiushibaike.com/article/125054738",
          "content": "局长出差，晚上给老婆打电话。聊了几句\u003cbr/\u003e老婆说：早点睡吧！今天我太累了！\u003cbr/\u003e局长：我怎么听屋里还有别人动静呢？\u003cbr/\u003e老婆：你出差我一个人，有点怕，叫闺蜜雨晴过来陪我，怎么了？还不相信我呀，要不，我叫雨晴跟你说两句！”\u003cbr/\u003e局长：不用了，我相信你，早点睡吧！\u003cbr/\u003e放下电话后，  局长看着身边熟睡的雨晴，\u003cbr/\u003e抽了一宿的烟，然后就病倒了…………\u003cbr/\u003e\u003cbr/\u003e这个故事告诉我们，吸烟有害健康。",
          "type": "hot"
      },
      {
          "author": "义行天下7",
          "link": "https://www.qiushibaike.com/article/125060854",
          "content": "吃完饭，老婆着急去超市，就把一堆锅碗瓢盆扔给我了！\u003cbr/\u003e我端着锅碗瓢盆正要去洗刷来着，突然电话响了起来，于是我就把锅碗瓢盆往地上一放，接了个电话，领导打的有急事，命令我速回公司一趟……\u003cbr/\u003e我哪敢怠慢，围裙都没脱，就驱车去公司了……\u003cbr/\u003e晚上回家，老婆把饭都做好了，还一直夸我锅碗瓢盆刷的干净，但就是不应该刷完以后还放在地板上……\u003cbr/\u003e搞得我丈二和尚摸不着头脑，脑子里过电影似的仔细回忆了起来，这时我家养的小黄狗摇着尾巴跑了进来，我赶紧拿个馒头喂它，它好像吃饱了似的，看都不看的跑开了，我瞬间明白了什么……\u003cbr/\u003e不好，老\n…",
          "type": "long"
      },
      {
          "author": "吃了两碗又盛",
          "link": "https://www.qiushibaike.com/article/125021902",
          "content": "给儿子买冰棍，看见四块钱一根的雪糕，买了三根。\u003cbr/\u003e因为之前从来没买过这么贵的，所以大家都觉得要做好准备才能尝到四块钱的价值:\u003cbr/\u003e我儿子漱了漱口，我媳妇去把牙刷了，到我这干脆去洗了个澡。",
          "type": "hot"
      },
      {
          "author": "怂包妇女主任",
          "link": "https://www.qiushibaike.com/article/124921511",
          "content": "家里父母回老家奔丧，女同事儿子才六岁没人带，就带到公司里写作业，挺乖的，不吵不闹。\u003cbr/\u003e她去车间了，儿子遇到作业难题，就问我损友：叔叔，冤冤相报是什么意思？\u003cbr/\u003e损友一听蒙了，灵机一动，网络上找出两只鸳鸯偎依在一起的图片，把笔记本抱过去给他指导：这就是鸳鸯相抱！",
          "type": "hot"
      },
      {
          "author": "猴.胖.子",
          "link": "https://www.qiushibaike.com/article/124916791",
          "content": "20岁时，大学还没有毕业，在一家很小的公司兼职，因为人少，还有出差的活，老板给了两张火车票和200块钱我就出发了，到了那地方已经是深夜了，联系到对方单位就开始干活了，等弄完已经是凌晨4点了，没有地方睡，在办公桌上趴会就睡了，天亮了，坐火车又回来了，然后把200块钱又还给老板了，老板当时都诧异了，你没有吃饭吗？\u003cbr/\u003e\u003cbr/\u003e好像没有",
          "type": "hot"
      },
      {
          "author": "这昵称你也敢抢",
          "link": "https://www.qiushibaike.com/article/124956039",
          "content": "男人啊，有能力一定要买多套房或者房子买大一点，能有自己独立的一个房间。这样你喝醉了被老婆赶出家门也不至于露宿街头或者在车上过夜啦…我的一个邻居就是这样，喝醉了被老婆赶出来，没地方住，只能睡车上[捂嘴][捂嘴][捂嘴]",
          "type": "hot"
      },
      {
          "author": "滂臭滂臭的螺蛳粉",
          "link": "https://www.qiushibaike.com/article/125007174",
          "content": "晚上8点钟，闺蜜火急火燎的叫我过去唱K,说来了很多俊男才俊，值得我出山。\u003cbr/\u003e还是闺蜜好呀，有好处惦记着咱，快速化妆套上我的裙子，蹬上我的高跟，野猪下山般的杀过去。\u003cbr/\u003e推开房门，房间很安静，帅哥们都很优雅矜持，几个闺蜜也矜持的在唱歌。\u003cbr/\u003e经过闺蜜的热情介绍，帅哥们开始被迫轮流敬我酒，仗着酒量大，回敬了他们四五六七八圈，觥筹交错，大家醉意上头，开始迷离了起来，闺蜜这时候加入了敬酒战团。\u003cbr/\u003e有人闺蜜挡火力真好，我也喝饱了，去了趟洗手间，出来的时候发现，场\n…",
          "type": "hot"
      },
      {
          "author": "挖鼻孔的老虎",
          "link": "https://www.qiushibaike.com/article/125006909",
          "content": "公司聚会，大家都喝了点酒。\u003cbr/\u003e老板娘和财务总监在聊护肤品。\u003cbr/\u003e各部门经理在谈哪种食材的纤维素高。\u003cbr/\u003e其他员工在分析未来三十年的国际形势。\u003cbr/\u003e新来的两个实习生，争论太阳黑子大爆炸在哪一年，快打起来了。",
          "type": "hot"
      },
      {
          "author": "核平天下",
          "link": "https://www.qiushibaike.com/article/124930198",
          "content": "买了瓶沐浴露，洗澡的时候用了点。一钻被窝从上边进去从被窝下边出礼到床底下去了。太滑了。",
          "type": "hot"
      },
      {
          "author": "RAmen先生",
          "link": "https://www.qiushibaike.com/article/124896015",
          "content": "下雪了，天气一下就冷了，把昵子大衣找了出来，这件大衣是大概8年前买的，80块钱，一直穿到现在，深色的并不显旧。女朋友知道了，给我（这里可以加个广告位）买了件新大衣，好几百，我说怎么给我买这么贵的，女友说不贵，照你这么个穿法，这件你能穿到退休……",
          "type": "hot"
      },
      {
          "author": "无情便是晴天",
          "link": "https://www.qiushibaike.com/article/125036377",
          "content": "今天我和同事都在加班，关系比较好，突然他撤离了我一段距离放了一个屁，当时我就说响屁不臭，臭屁不响。他说屁大事小，下回不跑。没一会我觉得我也有那种感觉，就直接放了一个，当时那同事离我两米远，我说响屁不臭，话还没说完，同事说，拉倒吧，听你那声浆都出来了。我该怎么证明。",
          "type": "hot"
      },
      {
          "author": "忧郁的创可贴",
          "link": "https://www.qiushibaike.com/article/124909082",
          "content": "老公老家在山区，恋爱时第一次去他家，为了表现自己，洗碗、扫地、喂鸡，各种家务帮忙做。\u003cbr/\u003e中午喂猪时，我端着一大盆煮熟的红薯，自己先尝一下烫不烫，别说味道真好。\u003cbr/\u003e几年过去了，老公的老家，还流传着一个传说 : 一个城里的新媳妇第一天上门，喂猪吃红薯的时候，猪一个，她两个，猪一个，她两个。。。",
          "type": "hot"
      },
      {
          "author": "上凹下凸",
          "link": "https://www.qiushibaike.com/article/124889434",
          "content": "带孩子去散步，路上遇到一个女生，背着行李应该是外地来旅游的……\u003cbr/\u003e她问我某某酒店怎么走，我耐心给她说了半天，她还是不明白，因为也不远于是我干脆领着她去目的地，她千恩万谢之后，我就带孩子离开了……\u003cbr/\u003e本来一件微不足道的小事，回家后孩子对他妈说：妈妈，妈妈，爸爸和一个很漂亮的小姐姐去宾馆了……",
          "type": "hot"
      },
      {
          "author": "南烟笙歌",
          "link": "https://www.qiushibaike.com/article/124921370",
          "content": "以前经常看到领居家的孩子弹弹珠,每天都能赢一大把回来。\u003cbr/\u003e某天下班回家,发现他在绿化带扒拉土块,好像在埋东西，等他走了，我去刨坑，哇～好多的玻璃球，刨出来洗干净低价卖给了附近小孩子，不过也挺担心他会去查埋的珠子数量。\u003cbr/\u003e经过十多轮，我才发现这家伙守财的很，真是可爱的招财童子。",
          "type": "hot"
      },
      {
          "author": "金失\u0026amp;金华…",
          "link": "https://www.qiushibaike.com/article/124967411",
          "content": "带学生参加区里的足球赛，上半场还没结束，队里的主力前锋在一次拼抢中不小心伤到了脚，只好联系了孩子妈妈，一起把孩子送到了附近的医院，孩子疼得直哭，孩子妈妈也哭，我看着孩子肿的老高的脚腕，心疼的也直掉眼泪……\u003cbr/\u003e我们正一边哭，一边等待检查结果的时候，孩子的爸爸也赶到了……",
          "type": "hot"
      },
      {
          "author": "空城旧梦她与伞",
          "link": "https://www.qiushibaike.com/article/124942310",
          "content": "年初就出国工作，今天终于回家了，晚上带着媳妇去逛街买衣服。\u003cbr/\u003e逛着逛着，媳妇说有点头疼，要去药店买药。店员推荐一款新药，说效果特好，只是孕妇不能服用，并问我媳妇是孕妇嘛？\u003cbr/\u003e我哈哈笑道：我年初就去了国外，现在是农历十月才刚回来，她怎么会是孕妇呢？\u003cbr/\u003e店员看了我一眼：我又不是问你，我是问她。\u003cbr/\u003e卧槽，你特么几个意思？",
          "type": "hot"
      },
      {
          "author": "叶子讲段子",
          "link": "https://www.qiushibaike.com/article/124985197",
          "content": "相亲的妹子问我有没有什么她应该知道的事儿。我回答：“坦白说吧，我这个人啊，特别敏感。”“这不用担心啦。”她笑着抚了抚我的手臂说：“完全没关系的。”我也笑了：“你这么说真好——能把纸巾递给我吗？谢谢。”",
          "type": "hot"
      },
      {
          "author": "糗友072649",
          "link": "https://www.qiushibaike.com/article/125006183",
          "content": "儿子被他妈妈揍了，哭哭啼啼来找我：“爸，她又打我了。咱俩都姓刘，她姓张，是个外人，咱可不能让她欺负呀！你要……”我伸手拉过儿子，语重心长地说：“儿子，以后，咱惹不起她就躲着她，行吗？”儿子叹口气，含泪点了点头。",
          "type": "hot"
      },
      {
          "author": "國務清",
          "link": "https://www.qiushibaike.com/article/124931800",
          "content": "同事在我不远处喝白开水。\u003cbr/\u003e我的余光看见他刚喝了一口，突然砰的一下，一团雾气在嘴与杯子之间喷出。我惊讶的看着他。\u003cbr/\u003e他不好意思的说：“呛着了”\u003cbr/\u003e这位高手把凉白开喝出了雪碧的感觉",
          "type": "hot"
      },
      {
          "author": "无书斋主",
          "link": "https://www.qiushibaike.com/article/124894914",
          "content": "半个月前，我请客吃饭！\u003cbr/\u003e买单时，钱不够，问老刘借了五百！\u003cbr/\u003e\u003cbr/\u003e上周二，老刘请吃饭，快买单时，他给我说他没带钱，叫我帮买下单！\u003cbr/\u003e我知道他这是叫我还钱了……\u003cbr/\u003e老板很会做人，六百二叫给六百！\u003cbr/\u003e\u003cbr/\u003e上周五快下班时，老刘过来:正哥，你借的五百要还我了，这钱周六我得给女儿买双鞋子！！\u003cbr/\u003e\u003cbr/\u003e我……\u003cbr/\u003e那我周二帮你买的单怎么办？？",
          "type": "hot"
      },
      {
          "author": "祝你新年快乐",
          "link": "https://www.qiushibaike.com/article/124898548",
          "content": "大哥开了个零食超市后天开业，这两天在打广告，由于具体广告内容我没有看，只是拍了店面的照片及商品发朋友圈。完了以后就附上一句留言，大家报我名字打八点五折。\u003cbr/\u003e一会就看见大哥给我留言：你名字那么臭，我开业是全场八折，赶紧给我删了你的话，省的我没开业就被你搞掉客人\u003cbr/\u003e……好尴尬啊……",
          "type": "hot"
      },
      {
          "author": "无书斋主",
          "link": "https://www.qiushibaike.com/article/124921907",
          "content": "两岁多的儿子和一个三岁多的孩子总打架，每次都被打得哇哇大哭！\u003cbr/\u003e这小子性格倔，打不赢还拼命的打，看着他哭的样子，我就随口说了句:打不赢，咬啊！\u003cbr/\u003e\u003cbr/\u003e昨晚下班回家，在小区广场那个三岁多的孩子哇哇大哭，儿子就像打了胜仗的小公鸡！！\u003cbr/\u003e\u003cbr/\u003e小孩的妈妈挡住我:正哥，你儿子说，你教他咬的？？……\u003cbr/\u003e\u003cbr/\u003e我……！！！",
          "type": "hot"
      },
      {
          "author": "叶子讲段子",
          "link": "https://www.qiushibaike.com/article/125029507",
          "content": "老李：“如果有一天我把你老婆睡了，我们还算不算兄弟？”老王：“不算。”老李：“那算什么？”老王：“那算。。。扯平了。”",
          "type": "hot"
      },
      {
          "author": "南九",
          "link": "https://www.qiushibaike.com/article/124915285",
          "content": "昨天单位订包房聚餐。\u003cbr/\u003e我去卫生间的时候见到前公司同事老曲带着老婆在大厅吃饭。\u003cbr/\u003e以前在一起工作的时候，老曲没少排挤我。\u003cbr/\u003e上完卫生间，我让娟姐去前台偷偷给老曲他们桌买了单。\u003cbr/\u003e大家喝得正兴，大厅传来吵闹声，我跑出去一看，老曲的老婆正揪着他的耳朵在前台边打边哭:你给我说明白，哪个女的对你这么好！\u003cbr/\u003e小样儿……还治不了你了……哼……",
          "type": "hot"
      },
      {
          "author": "中国加油！！",
          "link": "https://www.qiushibaike.com/article/124901937",
          "content": "邻居见我和老婆出门，随口招呼道：“这姑娘真漂亮，多大了？” 我笑着问老婆：“你有20没？” 老婆心花怒放：“讨厌！” 我又问：“你到底有没有啊？我刚才忘了把钱包带上了！”",
          "type": "hot"
      },
      {
          "author": "胖香",
          "link": "https://www.qiushibaike.com/article/124946610",
          "content": "以前我妈总是说我小侄子两岁了，用尿不湿浪费，没事把把就好了，我嫂子要么怼她两句，要么翻翻白眼不理她……\u003cbr/\u003e今天去我妈那玩，我妈喊我拿个尿不湿给她，要给二宝换上，我对着嫂子努努嘴，用脸色画了个问号，嫂子笑眯眯的告诉我:“前两天妈弄了一锅猪皮冻，弄好了端在客厅地上，就进厨房拿盘子的功夫，二宝把那盆皮冻给尿满了！”",
          "type": "hot"
      },
      {
          "author": "慕风者",
          "link": "https://www.qiushibaike.com/article/125045313",
          "content": "高中时班主任老师教英语，三十多岁一男的，人品不太好，喜欢背地找学生家长要东西，关键是课教的不好，说英文时嗑嗑巴巴，大家给他起个外号叫大傻。一次他叫英语科代表说事，到上课才放回来。语文老师已开始讲课，科代表在门外喊报告，老师让进来，科代表进来就对班长说，班长，大傻叫你。语文老师正莫名其妙，班长慢慢站了起来，大声道，报告老师，我们班主任找我。全班爆笑，语文老师一边捂着肚子一边挥手，快去，快去……",
          "type": "long"
      },
      {
          "author": "你不懂蛋蛋的忧伤",
          "link": "https://www.qiushibaike.com/article/124915992",
          "content": "去年春节在天津过年，体会过暖气的好处以后，现在回到广东过年，经常觉得太冷了。的冬天回家过年，我一直嘴里念叨好冷啊好冷啊。\u003cbr/\u003e\u003cbr/\u003e我爸突然生气了，说：“家都给不了你温暖了吗？”\u003cbr/\u003e\u003cbr/\u003e从此过年回家，再也不敢喊冷",
          "type": "hot"
      },
      {
          "author": "娇滴滴小猫咪",
          "link": "https://www.qiushibaike.com/article/124971461",
          "content": "人生除了生死，其余都是擦伤，\u003cbr/\u003e睡前原谅一切，醒来不谈过往。\u003cbr/\u003e我去～这得多大的心啊[捂嘴]",
          "type": "hot"
      },
      {
          "author": "柚子皮苦",
          "link": "https://www.qiushibaike.com/article/124938248",
          "content": "幸亏没有对象，不然这么冷的天还得出去约会[嘿嘿]",
          "type": "hot"
      },
      {
          "author": "上凹下凸",
          "link": "https://www.qiushibaike.com/article/125022495",
          "content": "公司组织演讲比赛……\u003cbr/\u003e拉票环节，几个选手竟然还学起来综艺节目里常用的煽 情流泪套路！\u003cbr/\u003e其中一个选手说：我父亲八岁时因为饥荒去世了……我爷爷因此郁郁寡欢，积劳成疾，也在不久后被野猪咬S了！",
          "type": "hot"
      },
      {
          "author": "陌小七a",
          "link": "https://www.qiushibaike.com/article/125018759",
          "content": "人在吃不饱的情况下只有一个烦恼😩！\u003cbr/\u003e吃饱了后有很多烦恼！\u003cbr/\u003e看来所有的烦恼都是吃饱了撑的没事做而来得！[笑哭]",
          "type": "hot"
      },
      {
          "author": "天哥少侠的小迷妹",
          "link": "https://www.qiushibaike.com/article/125032077",
          "content": "我有一同事出差了，回来后跟我们说：那破地方只有两季……\u003cbr/\u003e我疑惑反问：你不是才去了几天吗？怎么就知道那地方只有两季的\u003cbr/\u003e那同事不耐烦：我说的是信号",
          "type": "hot"
      },
      {
          "author": "南九",
          "link": "https://www.qiushibaike.com/article/124964011",
          "content": "单位组织象棋比赛。\u003cbr/\u003e咯咯咯……\u003cbr/\u003e全公司公认的老赵是高手，我是一流选手，孙副不入流。\u003cbr/\u003e哪知道这次比赛，孙副如棋圣附体，局局皆胜，更是在决赛中击败老赵，夺得第一名。\u003cbr/\u003e我看老赵棋技退步，便约他下棋，输了请客。\u003cbr/\u003e结果杀得我毫无还手之力……\u003cbr/\u003e老赵把棋一推，笑着说:想赢我….你得往上爬……",
          "type": "hot"
      },
      {
          "author": "上古时期的微信",
          "link": "https://www.qiushibaike.com/article/125043774",
          "content": "郭晶晶跳下去成了世界冠军 杨过跳下去找到了姑姑 张无忌跳下去练成了九阳神功 而我跳下去呢",
          "type": "hot"
      },
      {
          "author": "、来自火星球的我",
          "link": "https://www.qiushibaike.com/article/124908961",
          "content": "媳妇摔倒了，十分滑稽，我连忙拿出手机拍照!媳妇脸一沉：“你在笑的同时，有没有想过别人。”我一愣，赶紧把刚才拍的照片发朋友圈。",
          "type": "hot"
      },
      {
          "author": "《龙哥哥》",
          "link": "https://www.qiushibaike.com/article/124918501",
          "content": "刚工作时，还是个青涩少年，很多事情不懂。\u003cbr/\u003e吃午饭时，同事间闲聊，聊着聊着，话题就到了男女差别上，觉得男人具有天生的优势，大部分工作男人做都会完成的更好。一女生当时就急眼了；我们女人有大.姨.妈，你们男人有吗？\u003cbr/\u003e我当时就不乐意了；瞧你这话说的，就好像谁没有一样！我不但有大.姨.妈，还有小.姨.妈！你看，这个萝卜干是我大.姨.妈做的，这个酱豆是我小.姨.妈做的！",
          "type": "hot"
      },
      {
          "author": "一个鸡蛋壳",
          "link": "https://www.qiushibaike.com/article/124932092",
          "content": "上交了工资，趁媳妇高兴，我就问她，为何她总是这么强势！媳妇数着手里的票子头都没抬，非常不屑的说:“你是不是傻啊！你爷爷你老爸，哪个不是妻管严！我若是不在气势上压倒你，别人肯定会怀疑你是捡来的！”额…这话好像没毛病！！！",
          "type": "hot"
      },
      {
          "author": "〈女监狱〉男监狱长…",
          "link": "https://www.qiushibaike.com/article/124924709",
          "content": "昨天儿子放学刚把他从幼儿园接回来，他就跑去翻我和老婆放首饰的抽屉，我问他干嘛？他一边拿起我和老婆的结婚戒指，一边说要送给他班一个女生，要跟她结婚！我去……这是啥意思，我楞了半天憋出来一句，我说那首饰是我和你妈妈的！儿子又说借用一下嘛！我靠，气死老子了，要送人你自己挣钱买，老子还没死呢，就惦记老子的财产",
          "type": "hot"
      },
      {
          "author": "你不懂蛋蛋的忧伤",
          "link": "https://www.qiushibaike.com/article/124970411",
          "content": "自己到了这个年纪才能知道，有了房子和车子，还把三个孩子都抚养到上了大学的父母简直太强，他们是去银行抢劫了么？我连养活自己都困难！",
          "type": "hot"
      },
      {
          "author": "正版煮茶",
          "link": "https://www.qiushibaike.com/article/124970685",
          "content": "我小时候，去修自行车，被修车老板多收了钱。回家跟我哥说，我哥光膀子穿了一条皮衣，骑上摩托，带我去找修车店老板。半路，风大，我哥停车把皮衣拉链拉上。\u003cbr/\u003e去到修车店，我哥说上几句，准备脱掉皮衣露出他的腱子肉。一拉拉链，他哎哟一声。我赶紧过去：哥，咋了。\u003cbr/\u003e我哥面有菜色：别动，胸毛卡到拉链头了。\u003cbr/\u003e最后，我哥低眉顺眼的央求老板借他一把钳子…",
          "type": "hot"
      },
      {
          "author": "上凹下凸",
          "link": "https://www.qiushibaike.com/article/124926856",
          "content": "今天逛街的时候，遇到一个玩直播的小美女，对着手机自言自语，不断变换姿势……\u003cbr/\u003e可能她为了活跃气氛，突然拿着自拍杆冲到我面前说：先生，能对我的粉丝们说句话吗？\u003cbr/\u003e我有点生气的说：老婆，别闹了！快回家喂孩子……\u003cbr/\u003e只见她愣在原地，过了好久才哭着叫大家不要相信……",
          "type": "hot"
      },
      {
          "author": "忧郁的创可贴",
          "link": "https://www.qiushibaike.com/article/124963760",
          "content": "老公到广东出差半个月，昨晚上才回到家。早上我洗漱好，老公还在睡觉，肯定是太辛苦啦。\u003cbr/\u003e于是我亲热得拍了拍他的脸：亲爱的，早餐想吃啥？我去买。\u003cbr/\u003e老公迷迷糊糊道：和昨天早上一样吧，肠粉，这边的肠粉正宗，味道好。",
          "type": "hot"
      },
      {
          "author": "怂包妇女主任",
          "link": "https://www.qiushibaike.com/article/125006982",
          "content": "刚毕业那会儿，还没找到合适的工作，只好去找劳务派遣公司做临时工。\u003cbr/\u003e但是工价太低，我和其他一起找工作的有点犹豫，劳务的张总为人亲和，循循善诱，语重心长的和我们说：打工是一回事，重要的是围绕两个方向，一个厂里妹子多容易喜得良缘，第二是有机会做管理。\u003cbr/\u003e顿时我们的热情起来了，争先恐后和他签了三个月的合同。\u003cbr/\u003e第二天我们提着桶，背着井上了希望之车奔向了一个大厂，办完手续，进入车间，满车间的针车阿姨和魁梧春莉，看着我们这些小年轻露出了善意的微笑。",
          "type": "hot"
      },
      {
          "author": "忧郁的创可贴",
          "link": "https://www.qiushibaike.com/article/124894314",
          "content": "以前在一家大型手机卖场做营业员，那卖场很大，有二十多个员工，甚至有一个能容纳二十多个人的会议室。\u003cbr/\u003e每天早上的晨会，我们都要正襟危坐，在会议室里，听老板夸夸其谈。\u003cbr/\u003e我特别反感，于是辞职，去了一家小手机店，只有二十多平方，两个员工，更没有会议室。\u003cbr/\u003e谁知道第一天，老板就在店门口空地上，让我们站着，夸夸其谈给我们开了半个小时的晨会。。。",
          "type": "hot"
      },
      {
          "author": "无书斋主",
          "link": "https://www.qiushibaike.com/article/124915599",
          "content": "每天下班回家，两岁多儿子都会在小区门口等我，然后飞进我的怀里，用他的小手拍拍我的脸:爸爸……爸爸！\u003cbr/\u003e说真的，这是我一天最幸福的时刻！\u003cbr/\u003e\u003cbr/\u003e上周五回家，很远就看见这小子在和一个小姑娘玩……\u003cbr/\u003e我叫他，他好像没听见…！\u003cbr/\u003e\u003cbr/\u003e更气人的是，那小姑娘要走时，他竟然搂住小姑娘爸爸的大腿，一个劲的叫“爸爸”……！！！",
          "type": "hot"
      },
      {
          "author": "冷砚",
          "link": "https://www.qiushibaike.com/article/124967892",
          "content": "急诊。\u003cbr/\u003e一个八十多岁的老太太，突发脑卒中，家属送来时情况很不好。一番紧急检查之后，确定必须马上动手术。一边安排手术，一边让子女赶快交钱。\u003cbr/\u003e老太太女儿一脸镇静：来之前，我们找人算过，先生说了，我妈能活120岁，你们可别医坏了……\u003cbr/\u003e我：……",
          "type": "hot"
      },
      {
          "author": "无书斋主",
          "link": "https://www.qiushibaike.com/article/125032671",
          "content": "小区停车费有点小贵，超过十二小时要三十块！\u003cbr/\u003e于是，有很多车停在外面！\u003cbr/\u003e但，外面又抄牌，经常停外面的邻居告诉我，外面停车不能超过早上七点半，不然必抄！！\u003cbr/\u003e\u003cbr/\u003e前天家里来了客，他的车停我的车位，我停外面！\u003cbr/\u003e\u003cbr/\u003e不敢设闹钟，怕惊醒两岁多的儿子！\u003cbr/\u003e我三点多醒一次！\u003cbr/\u003e四点多醒一次！！\u003cbr/\u003e五点多醒一次！\u003cbr/\u003e六点多醒一次！\u003cbr/\u003e七点十分出去移车……\u003cbr/\u003e\u003cbr/\u003e大清早路滑，幸亏我身手敏捷，不然摔了一大跤！但，小跤也有点疼！\u003cbr/\u003e\u003cbr/\u003e耳边传来一声怒吼:都七点半了你还不去移车？……\u003cbr/\u003e我……我竟然还在床上！！……\u003cbr/\u003e\u003cbr/\u003e匆忙跑出去，刚把车在小区门\n…",
          "type": "hot"
      },
      {
          "author": "啊哈儿老师",
          "link": "https://www.qiushibaike.com/article/125036074",
          "content": "媳妇儿，进门就不高兴，媳妇跟我说，今天是平安夜，我一琢磨，今天是外国的节呀！咱不过这个，不过我还拿出200块钱，给媳妇儿，买个平安吧",
          "type": "hot"
      },
      {
          "author": "点赞的战斗驴",
          "link": "https://www.qiushibaike.com/article/124905181",
          "content": "网购了一袋核桃，送的是个小锤子，用的也不好使，敲不碎核桃，一问店家，说是他儿子的玩具乐器锤子，不小心给我邮来了",
          "type": "hot"
      },
      {
          "author": "可爱到家了",
          "link": "https://www.qiushibaike.com/article/124943702",
          "content": "再过两个月，你就会听到，他家就他一个孩子，人又老实，家庭条件也不错，父母还年轻，以后能帮你们带孩子，你嫁过去不用受苦此类的话",
          "type": "hot"
      },
      {
          "author": "空城旧梦她与伞",
          "link": "https://www.qiushibaike.com/article/125050745",
          "content": "这是十多年前，微 信还没普及的时候，年底，家里相亲了一个女友，她长得还挺漂亮的，说在东 莞某电子厂上班。\u003cbr/\u003e\u003cbr/\u003e第二年的三月，我从老家去找她，到了她所在的城中村，我掏出诺基亚手机：我到了，你来接我，这旁边有个兰州拉面馆，有书店，还有一家网吧。\u003cbr/\u003e\u003cbr/\u003e女友：你说的地方，我怎么不知道，你再看看周围有啥。\u003cbr/\u003e\u003cbr/\u003e我往周围看了看：对了，左边有一个七 天酒店，对面有一家情 人旅馆，不远处还有一家女子医院，很大的广告牌上写着无痛 人 流，随做随走……\u003cbr/\u003e\u003cbr/\u003e女友：哦哦，那地方我熟悉，你等我。",
          "type": "long"
      },
      {
          "author": "红栀6",
          "link": "https://www.qiushibaike.com/article/124935660",
          "content": "我的母亲经常教育我说：“你呀你呀！我真懒得骂你！我要是骂你，都对不起我上得这么多年学！”我妈妈是受过教育的人，有涵养，黑龙江武术学院毕业的。",
          "type": "hot"
      },
      {
          "author": "我叫布吉岛。。。",
          "link": "https://www.qiushibaike.com/article/124897425",
          "content": "朋友处了个情头，没多久就分了，正在她伤心难过的时候，突然收到消息，对方又加她好友了！给她高兴的！我赶紧送祝福，她淡淡的说:“不用了，他说他再次加我只是为了备注一下，以后好离我远点。。。”\u003cbr/\u003e额。。。",
          "type": "hot"
      },
      {
          "author": "秋水泛滥",
          "link": "https://www.qiushibaike.com/article/125040693",
          "content": "小时候家里来客人，小孩不能上桌，所以妈妈就把每样菜给我盛出来一点。但是鱼不行，因为鱼就一条没法分出来一点。\u003cbr/\u003e我妈就跟我说：没事，他们吃鱼的时候只会吃上面的，不会翻过来的。\u003cbr/\u003e于是，我就每隔一会就去看一次，看着看着，发现大人们喝尽兴了，就把鱼翻过来了，我就哇的一声哭出来了：妈……那帮臭不要lian的把鱼翻过来啦……",
          "type": "hot"
      },
      {
          "author": "王八与蛋",
          "link": "https://www.qiushibaike.com/article/124923302",
          "content": "天凉了，给女友准备了暖暖宝，女友感动地说：“你知道吗？只有我爸才会这么贴心给我准备！”我激动地说道：“那…那…你还不赶紧叫爸爸！”",
          "type": "hot"
      },
      {
          "author": "上凹下凸",
          "link": "https://www.qiushibaike.com/article/124956490",
          "content": "周末好不容易约班花去游乐场玩……\u003cbr/\u003e回到宿舍我开心的向室友炫耀这次游玩的经历，室友兴趣乏乏的玩着手机，当我说道：我们去玩海盗船的时候可好玩了，她被吓得脸色大变！……\u003cbr/\u003e室友顿时来了精神放下手机问：你说啥在脸上大      便？好好讲讲……",
          "type": "hot"
      },
      {
          "author": "我的羨已被湛上ぃ",
          "link": "https://www.qiushibaike.com/article/124892441",
          "content": "本人生气时比较喜欢说脏话，以前说时我老公会说好好说话。现在在说脏话，他会体贴的问我——你是不是吃屎了？[打脸]",
          "type": "hot"
      },
      {
          "author": "点赞的战斗驴",
          "link": "https://www.qiushibaike.com/article/125028029",
          "content": "我们做的项目书被客户否定了，早会的时候经理口若悬河的给我们讲项目书的各种缺点，然后应该怎么做，然后又讲他当年怎么做的项目，边说边用手机敲着项目书，然后问我们听懂了没有，我们没有说话，但是他的手机突然答话：我听不懂你在说什么？请再说一遍……",
          "type": "hot"
      },
      {
          "author": "脚被上帝吻过",
          "link": "https://www.qiushibaike.com/article/124921307",
          "content": "今天下班回到家，就听到我妈在那儿抱怨：现在的小偷太不道德了，连轮胎都偷。\u003cbr/\u003e我忙问：是什么情况？\u003cbr/\u003e我妈气愤道：电瓶车内胎被偷了，车子不能骑了，今天去菜场买菜都是走路去的。\u003cbr/\u003e我：纳尼，电瓶车是真空胎，没有内胎啊。\u003cbr/\u003e我妈不信，振振有词的说：我都扒开看了，就是内胎没有了，轮子才瘪的。\u003cbr/\u003e我无力辩解，带上工具就去楼下把轮子给卸了回来，捎带手，把破洞给补上了，用事实证明我是对的。\u003cbr/\u003e装上补好的轮胎，我妈瞪直了眼，丢下一句：现在的电瓶车厂，可真够偷工减料的，连内胎都不给装一个[捂脸]\n…",
          "type": "hot"
      },
      {
          "author": "易迎",
          "link": "https://www.qiushibaike.com/article/124956560",
          "content": "今天三十岁生日，媳妇炖了一大锅鸡子，小舅子陪我喝酒，喝着喝着，有点头晕出门外抽根烟（媳妇闻不得烟味），抽完烟歪歪倒倒地回桌子上，继续喝酒。开玩笑的说“喝得有点晕了，等下洗澡摔跤怎么办？某某（小舅子）你等下帮我搓背”，小舅子醉得红脸说：“我一脚踹你进厕所，再冲水冲到下水道”，开玩笑得哈哈大笑。媳妇给我买了生日蛋糕，好小个蛋糕。问她：“生日蛋糕这么小的吗？”，媳妇：“上个月不是给你提前买礼物吗？新的手机”，“好吧谢谢老婆大人！”我傻笑地说，为什么上个月买？因为她玩我手机，把手机摔地上死机了！三岁多的\n…",
          "type": "hot"
      },
      {
          "author": "冷砚",
          "link": "https://www.qiushibaike.com/article/124893479",
          "content": "立冬迎初雪，老板带领大家扫雪。\u003cbr/\u003e一个女孩来找老板，老板笑着说：表妹，你等我去拿。\u003cbr/\u003e主管迟到了，她刚把车停好，便招呼我们加油干。她瞥见那个女孩傻傻地站在那，“哒哒”地踩着高跟鞋走过去，很不客气地说：你是新来的吧？没看见大家都在铲雪吗？站在这里干嘛呢？\u003cbr/\u003e有人小声告诉她：这是老板的表妹，在等老板。\u003cbr/\u003e女主管稍稍一怔，笑魇如花，拉过女孩的手：站在这里干嘛？这里多冷，走，到我办公室暖和暖和……",
          "type": "hot"
      },
      {
          "author": "手镯启瓶器",
          "link": "https://www.qiushibaike.com/article/124972703",
          "content": "昨天晚上，小姨子哭哭啼啼来我家，她和她老公吵架了，她老公来接她，一哄就好了，现在已经回家了。我和媳妇睡不着，躺在沙发上看电视。我温柔地对妻子说：“媳妇，明天我们结婚十周年纪念日，我送你什么好呢？”媳妇小脸一红，撒娇地说：“咱们都老夫老妻了，你送什么我都喜欢。”我含情脉脉地说：“亲爱的，那我送你回娘家吧！过几天我再接你回来。”",
          "type": "hot"
      },
      {
          "author": "猫叔．",
          "link": "https://www.qiushibaike.com/article/124888993",
          "content": "买了二十双同款黑袜子，快穿完时统一洗，晾干再也不用花时间去配对了！",
          "type": "hot"
      },
      {
          "author": "柚子皮苦",
          "link": "https://www.qiushibaike.com/article/124943699",
          "content": "中国近代四大画家\u003cbr/\u003e齐白石的虾\u003cbr/\u003e徐悲鸿的马\u003cbr/\u003e张大千的虎\u003cbr/\u003e你老板画的饼",
          "type": "hot"
      },
      {
          "author": "挖鼻孔的老虎",
          "link": "https://www.qiushibaike.com/article/124943706",
          "content": "带老婆到我哥们家做客，哥们是做乐器的，阳台上挂着一根根小提琴的琴弓。\u003cbr/\u003e老婆看到了说：“哇，手艺真好。”然后走去欣赏，我也跟着走到阳台，问她干嘛对这东西这么感兴趣？\u003cbr/\u003e她压着嗓门说：“让我再装会儿，刚才看错了以为是腊肉。”",
          "type": "hot"
      },
      {
          "author": "风很大我有点冷",
          "link": "https://www.qiushibaike.com/article/124962563",
          "content": "背景：我在电脑斗地主，\u003cbr/\u003e四岁儿子走过来：爸爸，你输了吗\u003cbr/\u003e我：输了。\u003cbr/\u003e四岁儿子：你没有输，是差点就赢了。。。。",
          "type": "hot"
      },
      {
          "author": "手镯启瓶器",
          "link": "https://www.qiushibaike.com/article/124918302",
          "content": "今天不小心把媳妇的一瓶香水打翻了，幸好她没在家，然后我就想了个歪主意，打算嫁祸给我家的二哈。然后花了好长时间才伪造出来一个现场，就在我松了一口气的时候，儿子走了过来，递给我一张试卷，说：“你刚才干什么我都看见了，签个名，你别把我考试不及格的事儿告诉妈妈，要不然我要为二哈主持公道。”",
          "type": "hot"
      },
      {
          "author": "知——秋",
          "link": "https://www.qiushibaike.com/article/124961189",
          "content": "知道人生最悲催的事情是什么吗？买彩票，选好了号码，打两倍。结果老板手一抖，打了20倍，我嫌多，没要，老板自己留下了，然而老板中了……",
          "type": "hot"
      },
      {
          "author": "无书斋主",
          "link": "https://www.qiushibaike.com/article/124961527",
          "content": "周末和老婆带儿子在公园散步，前面有个穿半长筒靴子，短裤短皮袄的女的！……\u003cbr/\u003e突然一阵冷风吹来，我打了一个颤……\u003cbr/\u003e\u003cbr/\u003e看着老婆关怀的眼神，我只能弱弱的:没办法，我老了，冷！！",
          "type": "hot"
      },
      {
          "author": "韩大雪3",
          "link": "https://www.qiushibaike.com/article/124954282",
          "content": "我打了男朋友。\u003cbr/\u003e男朋友说他手皲裂了，各种拍照装可怜。\u003cbr/\u003e我给他买了手霜，还有冬天让伤口好的快一点的凡士林。\u003cbr/\u003e后面我还问他效果，他各种夸。\u003cbr/\u003e有一天，我发现，好几瓶都没拆包装。\u003cbr/\u003e我狠狠的打了他。",
          "type": "hot"
      },
      {
          "author": "红栀6",
          "link": "https://www.qiushibaike.com/article/124916659",
          "content": "一篇科学报导说：“开曼群岛附近的火山口发现了一种白色盲虾，可以耐热450°。”吃货的第一反应是：“那开水肯定是煮不熟，只能用油炸了。”",
          "type": "hot"
      },
      {
          "author": "胖香",
          "link": "https://www.qiushibaike.com/article/125046976",
          "content": "闺女正在学近义词，反义词，有个延伸题是写出类似于“托举”这样两个字意思相近的词……割……我把嘴咧大冲她使劲笑，充分的把“欢喜”给表现出来，引导她说:“看我的脸，从我脸上能看出来什么呢？”闺女一拍大腿啊，兴奋的喊:“对了，肥胖！”",
          "type": "hot"
      },
      {
          "author": "中国加油！！",
          "link": "https://www.qiushibaike.com/article/124890214",
          "content": "昨晚，儿子第一次掉牙了。媳妇对他说：“你把掉下来的牙齿放在枕头底下的话，半夜会有牙仙女过来把它换成五块钱的哦～”于是当晚儿子入睡后，我就悄悄地溜进他的卧室，小心地从他的枕头下拿走了牙，放到了自己的枕头下。",
          "type": "hot"
      },
      {
          "author": "娇滴滴小猫咪",
          "link": "https://www.qiushibaike.com/article/125051546",
          "content": "以前车马很慢  一生只够爱一个人，现在地铁很快，两个站就爱上八个",
          "type": "hot"
      },
      {
          "author": "倾心倾情%%",
          "link": "https://www.qiushibaike.com/article/125006219",
          "content": "让航哥给我修一下打印机，他三下五除二就整好了，让我拿张废纸试着打印一下，我办公桌上有点乱，着急了随手抽了一张纸，上面压着的东西有点重，纸没抽出来，倒把拿张纸的一角给扯下来了，等我把它拿出来时看见，那是boss出差前他签好字盖好章务必让我今天送客户的合同……\u003cbr/\u003e我这是要裂开的节奏呀！",
          "type": "hot"
      },
      {
          "author": "上凹下凸",
          "link": "https://www.qiushibaike.com/article/125062652",
          "content": "村里有老人仙游，于是请了几个远近闻名，道法高深的道士超度……\u003cbr/\u003e道士手持桃木剑，脚踏北斗七星步，口中噫噫呜呜的念叨着，也不知道是玄妙高深的经文还是咒语……\u003cbr/\u003e我一时好奇凑近听了听，只听到他口中念到：尘归尘土归土，做完这单换Q5！\u003cbr/\u003e我大吃一斤，以为听错了，继续集中精神仔细听他念叨：能粘天能粘地，能粘挖掘机大臂……恩怨情仇一笔消，买个保险买全套……\u003cbr/\u003e我愣了半天，朋友问我：你能听懂吗？这个师傅是不是很厉害？\u003cbr/\u003e我说：厉害是厉害，就是学的有点杂……",
          "type": "long"
      },
      {
          "author": "喂鱼抽喵",
          "link": "https://www.qiushibaike.com/article/125025472",
          "content": "我感觉我现在都麻木了王力宏给前妻赔1.5亿，薇娅偷税漏税罚款13.41亿，我都怀疑是不是通货膨胀没带上我。不然为啥大家一出手都几个亿我早上买个鸡蛋饼5块我都难过半天！",
          "type": "hot"
      },
      {
          "author": "易迎",
          "link": "https://www.qiushibaike.com/article/124896652",
          "content": "人在外，一旦手机电量百分之二十左右，我心就会慌。比老婆看我手机都慌。",
          "type": "hot"
      },
      {
          "author": "南九",
          "link": "https://www.qiushibaike.com/article/124933271",
          "content": "昨天晚上办公室几个人喝酒。\u003cbr/\u003e咯咯咯……\u003cbr/\u003e菜剩了很多，为了发扬勤俭节约的优良传统，每个人都打包一些带回家。\u003cbr/\u003e他们几个手快，把好菜都装袋子里了，我只好把桌子上剩下的几个青菜打包。\u003cbr/\u003e快出饭店门的时候，服务员把我拦下了，不让我把东西带走。\u003cbr/\u003e我火了，高喊:鸡鸭鱼肉可以打包！青菜你不让我拿？\u003cbr/\u003e服务员指着我手里其中一个袋子说:开瓶器您带走也就算了，但是能不能把空调遥控器给我们留下……",
          "type": "hot"
      },
      {
          "author": "张家十一少",
          "link": "https://www.qiushibaike.com/article/125003315",
          "content": "小时候为了不想干活，装睡着，一动不动四个小时，这期间还忍受了，我哥故意在我旁边吃好吃了，还放臭屁！",
          "type": "hot"
      },
      {
          "author": "双鱼座的小仙女",
          "link": "https://www.qiushibaike.com/article/124897661",
          "content": "给一个小姐姐测核酸，让她把绿码给我看看，她立马拿出手机给我看说，看吧，这么好看的颜色，比我男朋友给我带的帽子还绿！",
          "type": "hot"
      },
      {
          "author": "梦若流水",
          "link": "https://www.qiushibaike.com/article/124888512",
          "content": "我们这儿一般11月15号开始供暖，今年天气有点冷，1号就开始供暖气了。一开始也不怎么热，温乎，晚上还是要加被。\u003cbr/\u003e睡着睡着，被嗡嗡……的声音吵醒了，一只还趴在胳膊上吸血。特么的，吸血鬼就是善于洞悉环境的变化，看好了，现在是冬天，冬天，不是你该出来的时候，你特么以为这是夏天开空调了吧！",
          "type": "hot"
      },
      {
          "author": "奶爸笔记本",
          "link": "https://www.qiushibaike.com/article/125005239",
          "content": "小儿子入迷的看着动画片，丝毫没察觉到有蚊子在叮他。\u003cbr/\u003e直到媳妇发现时，儿子脸上已经隆起一个红包。\u003cbr/\u003e在媳妇的追杀下，仿佛久经沙场的蚊子飞了两圈后躲进了神龛里。\u003cbr/\u003e只见媳妇随即放下电蚊拍，转手拿起抹布擦拭着，借机把蚊子赶出来。\u003cbr/\u003e可是，那蚊子飞了一圈后又躲进了神龛。。。",
          "type": "hot"
      },
      {
          "author": "老巫婆～～",
          "link": "https://www.qiushibaike.com/article/125012551",
          "content": "无聊玩摇一摇，摇到一个漂亮小姐姐，我问：小姐姐，你瘦吗？\u003cbr/\u003e小姐姐：瘦呀～并发来一张身材很好的照片\u003cbr/\u003e我感叹：确实很瘦呀！\u003cbr/\u003e小姐姐：哈哈，还好啦\u003cbr/\u003e我：我一个能打你十个！\u003cbr/\u003e小姐姐：？？？",
          "type": "hot"
      },
      {
          "author": "自己的蛋自己疼",
          "link": "https://www.qiushibaike.com/article/125037610",
          "content": "快递小哥总是把我们的快递放在公司门口的传达室里。然后我们几个同事谁经过那里就帮忙带过来。\u003cbr/\u003e昨天刚好我经过传达室，进去找了我自己的快递，还有几个同事的快递。就全部给带回来了，快递都给同事们了，但有一个平时不怎么说话的同事没来，就想着明天再给他，随手放在窗台，上。结果今天早上那哥们找不到快递，他报警了，是的，没错，他报警了[哀怨]",
          "type": "hot"
      },
      {
          "author": "盐滩123",
          "link": "https://www.qiushibaike.com/article/124909257",
          "content": "昨天刚到下班点儿就火速打了卡，快步走向回家的地铁。坐第一趟车时心里还美不滋的在想“今天能早点到家”等第二趟地铁坐半天了才忽然发现，擦，坐反了！",
          "type": "hot"
      },
      {
          "author": "嘴嘴嘴嘴嘴嘴",
          "link": "https://www.qiushibaike.com/article/124993067",
          "content": "不结婚 晚年没伴儿\u003cbr/\u003e结了婚 不一定活得到晚年\u003cbr/\u003e不拼命工作 没钱养老\u003cbr/\u003e太拼命工作 有可能就用不着养老了 ​[捂脸][捂脸][捂脸][捂脸]做个女人真难，在加上是个老女人是难上加难[大哭][大哭][大哭]",
          "type": "hot"
      },
      {
          "author": "忧郁的创可贴",
          "link": "https://www.qiushibaike.com/article/124942371",
          "content": "小学一年级的放学路上，遇到一个算命的瞎子，身上挂了一个牌子，写着‘李半仙’。\u003cbr/\u003e\u003cbr/\u003e我那时调皮，故意问道：李半仙，帮我算算，明天我能不能考一百分？\u003cbr/\u003e\u003cbr/\u003e半仙掐了掐手指：你能不能考一百分我算不出来，我算出你今晚会狠狠的挨一顿揍。\u003cbr/\u003e\u003cbr/\u003e听了他的话，我心里很怕，路上磨磨蹭蹭的，拖到晚上十点钟才回家。到家后才知道我父母都快急疯了，发动了所有亲戚找我。\u003cbr/\u003e\u003cbr/\u003e父母问明原因后，气急败坏，给我来了一顿狠狠的男女混合双打。\u003cbr/\u003e\u003cbr/\u003e打完后，我蹲在角落，边抹眼泪边想，这哪是半仙啊？这简直是活神仙啊，这也算得太准了！",
          "type": "hot"
      },
      {
          "author": "忧郁的创可贴",
          "link": "https://www.qiushibaike.com/article/124930357",
          "content": "今天起床晚了 ，怕迟到，匆匆洗漱一下，没化妆就往公司跑。\u003cbr/\u003e到了公司门口早餐店，对着平时关系不错的单身老板说：老板，等下送个牛肉面到我办公桌\u003cbr/\u003e老板仔细瞅了瞅，迟疑道：你是小贴？你今天没化妆？\u003cbr/\u003e我点了点头。十分钟后，我吃着牛肉面，突然发现，面里的牛肉比以前少了很多。",
          "type": "hot"
      },
      {
          "author": "可爱到家了",
          "link": "https://www.qiushibaike.com/article/124917031",
          "content": "别看你身边的一堆损友成天疯疯癫癫 考出来的成绩每科都比你高",
          "type": "hot"
      },
      {
          "author": "无书斋主",
          "link": "https://www.qiushibaike.com/article/124952064",
          "content": "昨天上午带着儿子在公园晒太阳，来了几个小伙问我:哥，我这有军用望远镜，要不？？\u003cbr/\u003e我:军用？？\u003cbr/\u003e他们:唉，手上缺钱，拿点多的出来，领导在车上，别乱看？要的话，这个超远聚焦的给你，三百！！\u003cbr/\u003e\u003cbr/\u003e我拿过来试了下，确实超清晰！\u003cbr/\u003e\u003cbr/\u003e把望远镜递给他们:昨天在批发市场看见了，同款，二十！！\u003cbr/\u003e其中一个小伙一把抢过去:二十能有这好？我们三十进的！！……\u003cbr/\u003e\u003cbr/\u003e唉，你太急了，我话还没说完啊！\u003cbr/\u003e我是想怎么五十卖不卖？\u003cbr/\u003e你这个确实比二十的好！！！",
          "type": "hot"
      },
      {
          "author": "秋水泛滥",
          "link": "https://www.qiushibaike.com/article/125028379",
          "content": "儿子问我：爸爸，是谁发明了冰淇淋？\u003cbr/\u003e我说：我也不知道，大概是喜欢吃雪糕的人的吧。\u003cbr/\u003e儿子说：我猜应该是有个人一边吃雪糕一边拉便便的时候发明的。\u003cbr/\u003e我很疑惑的问：为什么？\u003cbr/\u003e儿子说：你看冰淇淋长得多像一坨便便啊！\u003cbr/\u003e看了看手中的冰淇淋，我还吃吗？",
          "type": "hot"
      },
      {
          "author": "猴.胖.子",
          "link": "https://www.qiushibaike.com/article/124954056",
          "content": "几年前，公司里新来的小美女，管谁都叫哥，叫姐，人长得也好看，单身狗们蠢蠢欲动，到了下班争先恐后想和小美女一起坐公交，小美女笑笑说，谢了，我开车来的，那崭新的路虎，坐公交的单身狗就别想了",
          "type": "hot"
      },
      {
          "author": "吃了两碗又盛",
          "link": "https://www.qiushibaike.com/article/124984880",
          "content": "跟朋友聊微信，儿子凑过来看:如果我没看错的话这个人叫徐坤?\u003cbr/\u003e我:对啊，我从小的朋友。\u003cbr/\u003e我儿子:蔡呢？\u003cbr/\u003e我竟一时没反应过来，我可没有姓蔡的朋友。",
          "type": "hot"
      },
      {
          "author": "实名八庄马大成",
          "link": "https://www.qiushibaike.com/article/124962614",
          "content": "租的大套房，你们知道的在外打工的吗，能省就省点，刚好老婆的闺蜜他们（她一直叫我姐夫）也要租房，就租给她们一间，也能分摊的房租。。\u003cbr/\u003e\u003cbr/\u003e租是以我的名义租的房，房东只跟我收房租。\u003cbr/\u003e\u003cbr/\u003e开始几个月，她经常跟我们蹭饭也就算了，房租还能按时交。\u003cbr/\u003e这几个月她们上班的厂因为限电，三天打鱼两晒网，她老公辞工去上海找活做了，已经连续两月没交我房租钱了。\u003cbr/\u003e\u003cbr/\u003e昨晚她又跟我们吃饭，我就逗她说：你要再不给交房租，明天我就住到你那房间去。\u003cbr/\u003e她连忙吞下嘴里的肉道：姐夫不用明天，只要秦姐没意见，今晩你就过去睡，反正我老\n…",
          "type": "hot"
      },
      {
          "author": "自己的蛋自己疼",
          "link": "https://www.qiushibaike.com/article/124918552",
          "content": "昨天晚上收到支付宝的一条消息提醒，我这一周只进账510块钱，比上周明显减少。玛德，这还用你提醒吗，我自己多穷我不知道吗[大哭][大哭]",
          "type": "hot"
      },
      {
          "author": "实名八庄马大成",
          "link": "https://www.qiushibaike.com/article/124898748",
          "content": "今天下午石膏板隔墙放线，隔墙师傅忘了通知我们，上午就把隔音棉（也就是玻璃纤维）装上了。。。\u003cbr/\u003e这种东西粘上身不是一般的痒，真的应验那句俗话∽∽冷尿饿屁穷扯谎中的冷尿！因为气温居降，虽然全付武装包裹，但是半天上了几次厕所。\u003cbr/\u003e\u003cbr/\u003e不说了。。晚上就在浴室住下了，已经冲洗第三次了，还是外甥打灯笼。。。。痒的专心。。。",
          "type": "hot"
      },
      {
          "author": "一枕清风.",
          "link": "https://www.qiushibaike.com/article/124992070",
          "content": "今天吃饭的时候和同事聊86版的西游记，突然领导在边上说：我要是唐僧女儿国那集就过不了。同事说：你要是唐僧白骨精那集都过不了还女儿国呢！我脑抽的来一句：你要是唐僧第一集就翻船了…",
          "type": "hot"
      },
      {
          "author": "唐僧熟了",
          "link": "https://www.qiushibaike.com/article/124914037",
          "content": "早上，我因为赶时间，便买了几个包子到公司吃。看见一位同事，我顺手递去一个包子。同事推辞说：“我吃过早饭了。” 我实心实意的说：“这可是狗不理包子啊！” 同事迟疑片刻... 终于接过了包子",
          "type": "hot"
      },
      {
          "author": "实名八庄马大成",
          "link": "https://www.qiushibaike.com/article/124915801",
          "content": "和老婆一起逛超市，她非要买那种不锈钢把挺贵的拖把，我说你又不拖地，你买这么贵的拖把干啥？\u003cbr/\u003e老婆笑笑说：那天我高兴了也能帮你把地拖拖呢，木把那个不光滑，太戳手了。\u003cbr/\u003e一个星期过去了，地吗她一次没拖过，不过她用起来还是挺顺手的。。。。\u003cbr/\u003e\u003cbr/\u003e为啥空心的不锈纲管比实心的木棍落身上痛呢？她说使的一样的劲？？",
          "type": "hot"
      },
      {
          "author": "南九",
          "link": "https://www.qiushibaike.com/article/125049963",
          "content": "公司发年终奖，老赵留了五千私房钱。\u003cbr/\u003e咯咯咯……\u003cbr/\u003e去年我也留了五千，聚餐的时候老赵给我说漏了，我老婆气得打我好几次。\u003cbr/\u003e今年我说啥也不能放过他，直接给赵嫂打电话:嫂子，奖金发了两万七，记得找老赵收钱。\u003cbr/\u003e嫂子笑了一声:老九啊！奖金两万二我是知道的。你赵哥跟我说了，你肯定会告诉我是两万七，挑拨我们两口子的感情，没想到还真让他说对了……都是同事，你使坏图啥呀……\u003cbr/\u003e我……",
          "type": "long"
      },
      {
          "author": "上凹下凸",
          "link": "https://www.qiushibaike.com/article/125048963",
          "content": "追了女神很久，她对我很冷漠……\u003cbr/\u003e今天突然对我说：你知道女人都喜欢的一句话吗？“包”治百病！你明白该怎么做了吧？\u003cbr/\u003e她说的这么明显，我一听哪能不知道她的意思？一咬牙一跺脚，狠狠心花了两块钱买了一个肉包子送给她……",
          "type": "hot"
      },
      {
          "author": "冷砚",
          "link": "https://www.qiushibaike.com/article/125031064",
          "content": "产科。\u003cbr/\u003e一个产妇从急诊送到产房来。我让她2—4个小时就去厕所小便一次，这样有助于缩短产程，她说：我百  度一下，看看你说的对不对……\u003cbr/\u003e宫缩痛得受不了了，她在哪里大喊大叫，我建议她打无痛，她看了我一眼：我要百  度一下，看看有没有副作用，会不会影响我的宝宝……实在疼得受不了了，她叫我：医生，你给我保证打了无痛，一点都不会影响我的宝宝，以后宝宝的智商也不会受影响，我就打无痛……\u003cbr/\u003e做内检，她说：我百  度一下，内检会不会让我感染其他疾病……\u003cbr/\u003e产床上，我给她讲，分娩时怎么配合用力，她说：我百  度了的，\n…",
          "type": "hot"
      },
      {
          "author": "无书斋主",
          "link": "https://www.qiushibaike.com/article/124969987",
          "content": "舅子老婆生日请吃饭，我和老婆到时只看见小姨子和舅子老婆！\u003cbr/\u003e坐下刚捧起茶杯，看见舅子和他小姨子推门而入……\u003cbr/\u003e\u003cbr/\u003e舅子的小姨子很漂亮，我不由瞄了一眼！\u003cbr/\u003e舅子以为我看他，冲我咧嘴:姐夫，别看，小姨子姐夫有一半！！……\u003cbr/\u003e\u003cbr/\u003e舅子说完，大家脸都黑了……\u003cbr/\u003e当然，除了我！！……",
          "type": "hot"
      },
      {
          "author": "夜静人深思",
          "link": "https://www.qiushibaike.com/article/124955628",
          "content": "最近老是肛裂 ，看了好几个医生都是好了又复发，出大钱挂了一个砖家号，砖家说你买支大宝，每天擦脸的时候顺手擦下PP，长了这么大，第一次知道菊花也要擦护肤品，还有宿舍不知道谁老是偷用我的大宝 不知道他们知道后会不会有什么想法！",
          "type": "hot"
      },
      {
          "author": "懶懶の貓",
          "link": "https://www.qiushibaike.com/article/125017253",
          "content": "之前听人讲过一个冷笑话，说有一家人家里有头牛，每天可以挤三杯牛奶喝……有天男主人想宴请九个朋友，就三天不给牛挤nai，寻思着第四天就有十二杯nai了。谁知道，第四天，牛挤不出nai来了。。。。\u003cbr/\u003e\u003cbr/\u003e我当时莞尔一笑，切，这家人真够傻的，nai水时间长不挤，自然就憋回去了。。。。不像我放的私房钱，时间长不花只藏，会越变越多……\u003cbr/\u003e\u003cbr/\u003e这时打扫卫生的媳妇，突然把我们墙上的结婚照取下来擦拭————\u003cbr/\u003e\u003cbr/\u003e哗啦啦，一大片粉色钞票，飘落下来，落下来，下来，来……",
          "type": "hot"
      },
      {
          "author": "猪头小小败",
          "link": "https://www.qiushibaike.com/article/124936617",
          "content": "[挖鼻孔][挖鼻孔][挖鼻孔]昨天晚上我给小胖说我要买一套海蓝之谜，他说我给你买一斤\u003cbr/\u003e我就照着抖音上的方式躺在床上打滚，说老公不爱我了\u003cbr/\u003e小胖拿起电话，喂，120吗？我这里有一个精神病患者，怎么样把她送到4医院去？",
          "type": "hot"
      },
      {
          "author": "唐僧熟了",
          "link": "https://www.qiushibaike.com/article/124925739",
          "content": "前几天招呼几个哥们喝酒，喝大了，两个哥们打了起来。今天为了让他们和好，又招呼了一桌，一坐下就和好了，喝到一半说起前天的事又他妈打起来了。我去，我是组织喝酒的，不是组织比武的。",
          "type": "hot"
      },
      {
          "author": "小鸟小鸟小鸟",
          "link": "https://www.qiushibaike.com/article/125032384",
          "content": "晚上睡觉前，老婆趴着看手机，我给四岁半的儿子读故事。故事讲到一个小孩不听话被他爸爸打屁屁，儿子一边听一边“啪 啪”拍了拍老婆屁屁，突然发现新大陆似的惊叫：“妈妈的屁股好肥啊！”",
          "type": "hot"
      },
      {
          "author": "手镯启瓶器",
          "link": "https://www.qiushibaike.com/article/125024817",
          "content": "五年前谈了个女朋友，她爹不喜欢我，把她嫁到了外地。今天在街上突然碰到她爹，虽然恨他，但还是叫了声叔，还递了根华子。她爹猛抽了两口烟：“你有今天的成功是我没想到的啊！叔后悔啊！当初我算准你小子就是个要饭的命，怕女儿受苦，所以死活不让她跟着你。可万万没想到的是，现在要饭会这么挣钱！”",
          "type": "hot"
      },
      {
          "author": "寒山宽洪",
          "link": "https://www.qiushibaike.com/article/124970256",
          "content": "哥们儿问我，百家姓里姓啥的寿命最长？\u003cbr/\u003e我随口回答：你说的是姓王吧？！\u003cbr/\u003e答对了，千年王八万年龟。\u003cbr/\u003e我姓王，被这小子套路了！",
          "type": "hot"
      },
      {
          "author": "无书斋主",
          "link": "https://www.qiushibaike.com/article/124932434",
          "content": "周五下班回家，老婆问我:老公，你说曼曼长得好不？说说你对她的看法呗？\u003cbr/\u003e我……\u003cbr/\u003e这特么是个送命题，你问你的闺蜜长得好不就算了，还要老公说说对她的看法，这我能上你的当？\u003cbr/\u003e\u003cbr/\u003e我看着老婆的眼睛，只好违心的故作思考状:说真话，曼曼长得一般就算了，还自以为是个美女……\u003cbr/\u003e自我感觉好没有关系，关键是还作！……\u003cbr/\u003e\u003cbr/\u003e再瞄了一脸笑意的老婆:真的，比我老婆差远了，以后别问这样无聊的问题，没可比性！！……\u003cbr/\u003e我刚说完，曼曼从客房出来，一脸的鄙夷……\u003cbr/\u003e\u003cbr/\u003e我……我也没办法，就是当着你，我也得说我老婆好啊！！",
          "type": "hot"
      },
      {
          "author": "一个鸡蛋壳",
          "link": "https://www.qiushibaike.com/article/124892262",
          "content": "刚下班回家，老妈就塞给我一袋苹果“赶紧给你未婚妻送去”，我心里一热“这还没过门呢就疼上儿媳妇儿了。”刚想转身，听老妈又交待“听说苹果减肥，让她赶紧吃，多吃，婚期越来越近了，别到时候婚纱一穿，叫人误以为你娶了个冬瓜！",
          "type": "hot"
      },
      {
          "author": ".白夜行.",
          "link": "https://www.qiushibaike.com/article/124892891",
          "content": "在外地上学，想回家一趟看看父母。白天的火车票没了，就买了一张3.26凌晨0:30的票。3.26晚9点，收拾行李，赶地铁早早的到了火车站，好久没回去过了，想想马上就要回家了就压制不住的激动。3.26晚11点半，再有一个小时就能回家了。心情越来越激动，不停地看着时间的流动。于是，在0点的那一刻，我眼睁睁看着日期由3.26跳到了3.27",
          "type": "hot"
      },
      {
          "author": "浪漫的小乞丐",
          "link": "https://www.qiushibaike.com/article/124989430",
          "content": "媳妇和我大嫂逛街去了，把两孩子丢给我照看，好在两孩子都在用心的写作业没啥事情，我就在沙发上眯着眼小睡一会。\u003cbr/\u003e突然耳朵边传来我儿子的声音说：哥你看，柜子后面有好多钱，吓了我一个激灵，从沙发上跳出来。我板着脸说对儿子说：这钱是我的。你谁都不准拿，也不准告诉妈妈？如果你告诉妈妈的话，我会给你布置很多作业。\u003cbr/\u003e儿子看着我一付凶神恶煞的模样，胆怯的说好的粑粑。看到儿子模样我知道我的威吓起到了效果，肯定不会去告诉他妈妈。\u003cbr/\u003e结果媳妇回来的时候，儿子迫不及待的喊到：麻麻那个柜子后面好多钱，这时的我早已吓了瑟瑟发抖\n…",
          "type": "hot"
      },
      {
          "author": "洋哥不给力呀不给力…",
          "link": "https://www.qiushibaike.com/article/124948300",
          "content": "昨天老婆在丈母娘家吃火锅，吃完了就打电话叫我去接她回家。\u003cbr/\u003e一到丈母娘家，老婆就端着碗过来开门，顺便喂了一块蘑菇给我吃。结果，不到10分钟我就拉稀了……\u003cbr/\u003e蹲在厕所里，隐约听到她在对丈母娘说：看吧，我就说这个蘑菇不能吃的！",
          "type": "hot"
      },
      {
          "author": "死去的帅哥",
          "link": "https://www.qiushibaike.com/article/125059453",
          "content": "附近有一所中学，路过时食堂里经常飘出一阵阵诱人的香味，让人垂涎欲滴，肚子饿时都有翻墙进去蹭一顿的冲动……\u003cbr/\u003e住我隔壁一美女，好像还单着，听说是那所学校的音乐老师，进进出出的经常碰面，想搭讪又找不到理由……\u003cbr/\u003e终于让我逮着机会了，明天我就找她，问她能不能找关系让我去他们学校当插班生，最好是安排在她任课的班[捂脸]",
          "type": "hot"
      },
      {
          "author": "深秋的香樟树",
          "link": "https://www.qiushibaike.com/article/124905015",
          "content": "记得有次考试前班主任把我叫到了外面，语气出奇的温柔随和总之就是对我好言相劝，让我放弃这次考试\u003cbr/\u003e作为交换条件，我可以任意提！\u003cbr/\u003e我咬咬牙狠狠的敲了班主任一箱干脆面\u003cbr/\u003e期末总成绩出来了！我们乙班终于吐气扬眉了一回———压了甲班一头",
          "type": "hot"
      },
      {
          "author": "欲湖冰心",
          "link": "https://www.qiushibaike.com/article/124942509",
          "content": "早起送四年级的儿子去学校，路过校门口附近的老师专用停车场时，大概道闸失灵了，老师们的车挤成了一锅粥。\u003cbr/\u003e儿子扯住我的手，惊恐万状地喊：“老爸，快跑，这里是恶魔的巢穴！”",
          "type": "hot"
      },
      {
          "author": "上凹下凸",
          "link": "https://www.qiushibaike.com/article/125053419",
          "content": "因为一直找不到女盆友，家庭聚会的时候爷爷说：你的长相也不赖，看看你表哥，一年要换十个八个女朋友的，你为啥一个都找不到呢？\u003cbr/\u003e我低着头小声的说：我表哥也没说要匀两个给我……",
          "type": "hot"
      },
      {
          "author": "知——秋",
          "link": "https://www.qiushibaike.com/article/124978759",
          "content": "女同事结婚，伴娘团考验新郎。问问题，其中一个问题是新娘内衣尺寸，新郎一连说了好几个尺寸都不对。幸亏旁边一个伴郎机智的答对了",
          "type": "hot"
      },
      {
          "author": "寒山宽洪",
          "link": "https://www.qiushibaike.com/article/125059537",
          "content": "公历没有农历好。朋犮圈都在发再见2021,纯粹废话，见得着吗？这农历记年，60年一个轮回，活过一个甲子，是不是有起死回生的感觉？！",
          "type": "hot"
      },
      {
          "author": "无书斋主",
          "link": "https://www.qiushibaike.com/article/124949340",
          "content": "昨晚老婆在她自己不穿的衣服口袋掏出了八百块钱！\u003cbr/\u003e很开心，拿着这八百块钱说请我和儿子出去吃顿大餐！！\u003cbr/\u003e\u003cbr/\u003e我也很开心，那钱是我放的，从她私房钱里面偷出来放的！！",
          "type": "hot"
      },
      {
          "author": "帝国守卫",
          "link": "https://www.qiushibaike.com/article/124988112",
          "content": "在部队时，每年都体检，有一项是要全裸的！\u003cbr/\u003e那时候还是新兵，等我们班进去，一看，一个女医生，还有一个小护士！\u003cbr/\u003e一帮人瞬间不淡定了，扭扭捏捏，谁也不敢脱！\u003cbr/\u003e医生不高兴了，说，有什么不好意思的，我们是医生，见得多了，快点，后面还有很多人呢！\u003cbr/\u003e可是大家还是不动！\u003cbr/\u003e这是外面排长急眼了，冲进来，让我们全部立正，然后举起手，把我们裤子全给扒了！\u003cbr/\u003e唉，那个害臊啊！",
          "type": "hot"
      },
      {
          "author": "吃了两碗又盛",
          "link": "https://www.qiushibaike.com/article/124964190",
          "content": "我儿子前两年想当班干部，一直没当上。初三增加了化学课，他终于如愿当上了课代表。\u003cbr/\u003e第一个月挺新鲜，第二个月感觉累，请求老师给他增加个副手，第三个月，我儿子又去问老师:我是不是可以退休了？",
          "type": "hot"
      },
      {
          "author": "余九1",
          "link": "https://www.qiushibaike.com/article/125059893",
          "content": "凤凰山下有个龙王庙，龙王庙后殿有个万佛堂，万佛堂里供奉着许许多多尊小菩萨。这些菩萨都是一些人家里的请的，然后不供奉了就可以自己送来万佛堂供着。各种各样，有观世音菩萨，财神爷，关二爷……\u003cbr/\u003e这些菩萨聚在万佛堂，倒也香火旺盛，成百上千的菩萨摆放在一起倒也庄重肃然，气势恢宏。\u003cbr/\u003e有天去万佛殿上香，赫然看到成群的菩萨中，一只巨大的金色招财猫摆在了正中，犹如鹤立鸡群。\u003cbr/\u003e这也可以……",
          "type": "long"
      },
      {
          "author": "娇滴滴小猫咪",
          "link": "https://www.qiushibaike.com/article/124955480",
          "content": "刚才看到一位陌生的小男孩站在玩具车前面连续小声念着好想要喔，我竟然有一种冲动想买给他，这是什么妖术？",
          "type": "hot"
      },
      {
          "author": "上凹下凸",
          "link": "https://www.qiushibaike.com/article/125027072",
          "content": "因为被公司开除，心情郁闷我在客厅玩手机，女友在里屋跟闺蜜聊电话，我起身倒水的时候，无意间听见里屋传来女友的声音：你说，如果我的两个男朋友能和睦相处就好了……\u003cbr/\u003e我吃惊的问：什么俩个男朋友？？\u003cbr/\u003e女友愣了一下，放下电话生气的说：我说的是两个老朋友！你果然耳朵不好使！分手！",
          "type": "hot"
      },
      {
          "author": "寒山宽洪",
          "link": "https://www.qiushibaike.com/article/125010872",
          "content": "同事逗我儿子：你们家里谁说了算？\u003cbr/\u003e儿子：我爸是一家之主，我妈是一家之王，差不多，就一点儿！",
          "type": "hot"
      },
      {
          "author": "秋水泛滥",
          "link": "https://www.qiushibaike.com/article/125000912",
          "content": "刚参加工作的时候，每天坐公交，但是每次都要准备零钱很麻烦，于是，办了一张公交卡，既优惠又方便。\u003cbr/\u003e办完公交卡我很高兴，乐乐呵呵的上公交，从兜里掏出公交卡，直接扔到了投币口里。\u003cbr/\u003e那天我坐到了公交的终点站，才拿回我的公交卡；那天我从乐乐呵呵变成了愁眉苦脸；那天我交了迟到的罚款。",
          "type": "hot"
      },
      {
          "author": "正版煮茶",
          "link": "https://www.qiushibaike.com/article/125050337",
          "content": "那天空调维修，窗户装了防护栏，出不去，师傅只好从楼上吊绳子下来。\u003cbr/\u003e我等了半天，没看到他下来。\u003cbr/\u003e突然，他下来了，我问他为什么这么久。\u003cbr/\u003e他说，刚刚经过九楼的时候，九楼的大姐看到他，给他三十块，让他兼个职帮忙擦外面的玻璃…",
          "type": "hot"
      },
      {
          "author": "大头梨不大",
          "link": "https://www.qiushibaike.com/article/124952623",
          "content": "刚出来的还热乎呢，我媳妇有个闺蜜，跟我们走的很近隔三差五就去我家蹭吃蹭喝顺带住几晚，她二十八了，也没个对象，这几天我媳妇让我在单位给她闺蜜张罗找个小伙相亲，昨晚我把我师弟叫出来两个人见了一面，小伙子很满意，但是女孩子好像没多大兴趣的样子，吃完饭回到家，看她闷闷不乐的样子，我也没放在心上，洗洗澡就躺下了，不大一会手机收到一条微信，你知道么我一直喜欢你，不是我跟我姐感情太好了，我一定横刀夺爱!卧槽，我当时就懵逼了，这要是被我媳妇知道了，肯定两具无名尸体啊，我就想问一下大家出出主意我该怎么办，",
          "type": "hot"
      },
      {
          "author": "玫瑰枝叶",
          "link": "https://www.qiushibaike.com/article/124956577",
          "content": "很久很久以前的QQ号！忘了密码了！\u003cbr/\u003e神操作开始。。。。。。\u003cbr/\u003e请输入密码，密码错误！\u003cbr/\u003e又输入密码，还是密码错误！\u003cbr/\u003e再输入密码，还还是密码错误！\u003cbr/\u003e又重新输入密码，怎么又是密码错误！\u003cbr/\u003e感觉好像我记错了！！！！\u003cbr/\u003e忘记密码！\u003cbr/\u003e手机验证！输入验证码，\u003cbr/\u003e重新设置密码！？\u003cbr/\u003e你好新密码不能不能和旧密码相同！？\u003cbr/\u003e我顶🖕 你🖕 个🖕 肺🖕\u003cbr/\u003e企鹅马！？我问候你家人",
          "type": "hot"
      },
      {
          "author": "帝国守卫",
          "link": "https://www.qiushibaike.com/article/124988107",
          "content": "去医院做个肠镜，选的全麻！\u003cbr/\u003e那天见到主治医生，竟然是我前女友，不过我们和平分手，我也没啥可怕的！\u003cbr/\u003e前女友却是有些不自然，许久给助理说道，给这位患者换个麻醉师！\u003cbr/\u003e我说，为啥？\u003cbr/\u003e前女友许久说，麻醉师是我老公，他比较小心眼！\u003cbr/\u003e这……！谢谢救命之恩！",
          "type": "hot"
      },
      {
          "author": "点赞的战斗驴",
          "link": "https://www.qiushibaike.com/article/125006326",
          "content": "我回家和媳妇说今天工作太忙了，在地铁上站着就睡着了，媳妇说：真的吗？真的可以啊！我小时候看我家的驴站着睡觉还奇怪了好几天呢",
          "type": "hot"
      },
      {
          "author": "怂包妇女主任",
          "link": "https://www.qiushibaike.com/article/124969579",
          "content": "村里喝大酒，醉猩猩的回家，看到一只黄鼠狼直立行走，一会儿站着望着我。\u003cbr/\u003e想起电影《伏妖白鱼镇》，猛然有点惊醒，先下手为强，抢台词，对黄鼠狼笑问道:老乡，老乡，你看我像人还是像仙？\u003cbr/\u003e黄鼠狼：卧槽，见到成精的前辈了！",
          "type": "hot"
      },
      {
          "author": "空城旧梦她与伞",
          "link": "https://www.qiushibaike.com/article/125022628",
          "content": "买了一个600升的冰箱，准备多屯点物.资。早上买的牛肉，中午从冰箱里拿出，被冻得很硬。\u003cbr/\u003e我一边解冻，一边说道：哎呀，才三个小时，就冻成这样了。\u003cbr/\u003e媳妇走过来，摸了摸 牛肉，兴 奋道：老公 ，新冰箱这么大，要不你也进去呆三个小时。",
          "type": "hot"
      },
      {
          "author": "小唐巴拉巴拉",
          "link": "https://www.qiushibaike.com/article/125048430",
          "content": "我婆婆五十五岁了，前几天给我拿了一件外套，说自己穿不合适，她觉得挺好看，给我试一下。我一看款式不喜欢，就笑着说:妈，这么好看的衣服给我干嘛，你自己穿呗。她说，不不不，我穿太老气了………………",
          "type": "hot"
      },
      {
          "author": "奶爸笔记本",
          "link": "https://www.qiushibaike.com/article/125038091",
          "content": "媳妇叒揍儿子了。\u003cbr/\u003e不大一会的功夫，还晕厥了。。\u003cbr/\u003e我抱着一百多斤的她冲下六楼了！\u003cbr/\u003e送院途中她醒了。。。\u003cbr/\u003e在医生的询问下，她居然说:“没事了，是我老公没煮早餐，\u003cbr/\u003e\u003cbr/\u003e饿的昏古七的。”",
          "type": "hot"
      },
      {
          "author": "点赞的战斗驴",
          "link": "https://www.qiushibaike.com/article/125022168",
          "content": "昨天单位男同事聚餐，年底了大家喝的有点多，吃完饭互相扶着出了饭店门，突然有人喊抓小偷，我们寻声看去，有个高瘦男的快速朝着我们这边跑来，后面一个女生边喊边追，我们互相看看想着要不要管闲事，平时一直不爱说话的小李直接一个飞脚，没踢住小偷，但是直接把他绊倒了，然后居然顺势抱住了小偷，我们赶紧过去帮忙，但突然小李“啊哦”吐了出来，吐了小偷一头，那味道太难闻了，我们几个人也开始狂吐，小偷刚开始挣扎，后面就捂嘴抱着头一动不动，失主跑来了远远惊恐的看着我们降伏小偷都惊呆了",
          "type": "hot"
      },
      {
          "author": "尐飯團",
          "link": "https://www.qiushibaike.com/article/125020754",
          "content": "每一次男明星出事，受伤害的都是我们普通男性。就在刚才，本来已经准备睡觉了。结果老婆看了一眼微博，气的她把我拉起来打了一顿，边打边骂：男人就没有一个好东西",
          "type": "hot"
      },
      {
          "author": "义行天下7",
          "link": "https://www.qiushibaike.com/article/124966826",
          "content": "近期工作任务重，每天加班到很晚，休息不好，累、累、累！\u003cbr/\u003e今天一早头昏昏沉沉的欲去上班时，，老婆还在为生活琐事不停的抱怨，我心力焦碎的说：现在工作任务繁重，每天休息不好，你还在不停的唠叨，我真的快要崩溃了，你就不能给我打 打 气？\u003cbr/\u003e\u003cbr/\u003e正在吃饭的儿子转身拿起打气筒铿锵有力的对我说：来爸爸，我给你 打 打 气！",
          "type": "hot"
      },
      {
          "author": "啊哈儿老师",
          "link": "https://www.qiushibaike.com/article/124924411",
          "content": "儿子有一个作业，到晚上才想起来，就是拍一下天上的云，然后传给老师，直到晚上才想起来这个作业没做，给我儿子急的问这怎么办？我自告奋勇，给儿子画了几朵云，然后用手机拍下来传给老师，过一会儿，老师回了一句话。孩子，你爸爸一定是上帝，都能造云了。看到这个，我脸一下就白了。。",
          "type": "hot"
      },
      {
          "author": "陈一默",
          "link": "https://www.qiushibaike.com/article/124902517",
          "content": "外卖送到小区门口时，才知道是前女友点的。\u003cbr/\u003e前女友脸上的表情很精彩：你……原来是你呀，幸亏当初没嫁给你。\u003cbr/\u003e我说：当初我就说过，你没饭吃时，请联系我，我随时给你送上可口的热饭。\u003cbr/\u003e前女友：你还是只会耍贫嘴……\u003cbr/\u003e话没说完，一辆豪车停在我身边，就在门禁挡杆抬起的一刹那，我拉开门坐了上去，微笑着对前女友挥手：其实送外卖只是我的业余爱好，我真正的身份是……\u003cbr/\u003e开车的中年女人吃惊地看着我：你要干什么？\u003cbr/\u003e我低声求她：大姐，外面是我前女友，借您的车让我装一会……\u003cbr/\u003e中年女人指着车外面说：这是我儿媳妇！",
          "type": "hot"
      },
      {
          "author": "叶落紫枫",
          "link": "https://www.qiushibaike.com/article/125012497",
          "content": "刚交的女朋友，今天陪她去逛街，路上我不小心摔了一跤，她非但不关心我反而还要和我分手，我问她：为什么？\u003cbr/\u003e“掉在地上的东西我从来不要！”\u003cbr/\u003e我。。。",
          "type": "hot"
      },
      {
          "author": "点赞的战斗驴",
          "link": "https://www.qiushibaike.com/article/125013099",
          "content": "第一次因为孩子问题被叫去了学校，去了才知道，英语考试，第三题判断题，我家孩子依然写着A,B,C,D,A,C,D。",
          "type": "hot"
      },
      {
          "author": "娇滴滴小猫咪",
          "link": "https://www.qiushibaike.com/article/124974411",
          "content": "看一则报道，绝对是世界上最倒霉的棕熊。这只现实版的倒霉熊名字叫“乔伊”。它是一只得了白化病的棕熊，被动物保护组织发现后，误认为是闯入森林的北极熊，于是它被麻醉后用直升机直接送去北极。没过多久一群科考队员途经北极时，发现了这头被冻得瑟瑟发抖的“北极熊”，它还经常挨附近其他真北极熊的追打。于是乔伊被幸运的救了回来。然而，好景不长，第二年当乔伊正在冬眠的时候又被同一个动物保护组织发现。它，它，它又被麻醉后用飞机送回了北极。后来历经磨难，乔伊终于又被救了回来。另一个动物保护组织为了不让它再被认错，还给它\n…",
          "type": "hot"
      },
      {
          "author": "祝你新年快乐",
          "link": "https://www.qiushibaike.com/article/124934038",
          "content": "昨天晚上去市里上货，不得不说这天气是真的冷，寒风凛冽，冻入刺骨。走到宿舍门口，发现门口低洼处的积水结冰了。\u003cbr/\u003e在皎白月光的照耀下，晶光闪亮的。顿时就童心泛滥，用脚去踩冰块，听着冰块碎裂的声音，是真的好听，由于风太大，太冷了，一会就回去睡觉了。\u003cbr/\u003e早上醒来，穿上鞋子，发现有点漏风。出门一看，昨晚的冰块是对面的玻璃门窗被风刮掉地上，碎了一块一块的。",
          "type": "hot"
      },
      {
          "author": "实名八庄马大成",
          "link": "https://www.qiushibaike.com/article/125041040",
          "content": "老爷子生病住院，我陪护。。。。\u003cbr/\u003e\u003cbr/\u003e今天输液有点迟，想着不影响他吃中饭，就让护士给他挂左手。。\u003cbr/\u003e\u003cbr/\u003e千算万算还是被老爷子说一顿，说我不想让他活着就明说，他可以绝食，几十年了还不知道他是左撇子。。。。\u003cbr/\u003e天地良心，我是真的粗心不知道哦。。。。。",
          "type": "hot"
      },
      {
          "author": "挖鼻孔的老虎",
          "link": "https://www.qiushibaike.com/article/124922140",
          "content": "老板和我们几个同事正在开会，门忽然开了，老板娘像个小女生那样探进来脑袋，叫老板出去说点事。\u003cbr/\u003e老板很严肃的说：“我说过不要搞小圈子，我和你也不能例外。”\u003cbr/\u003e老板娘没反应，老板接着说：“有话直说，能坐在这里的都是自己人，我的一切全靠大家努力！”\u003cbr/\u003e然后老板娘说她怀孕了。",
          "type": "hot"
      },
      {
          "author": "梦若流水",
          "link": "https://www.qiushibaike.com/article/125062954",
          "content": "说个喝酒的糗事_－酒量有限，喝酒最多的一次，39°白的喝过八两左右，不过那真是好酒，平时也就是三四两的水平。\u003cbr/\u003e一晚上，莫名的心烦，家里就自己一个人，还睡不着，突然很想喝酒，夜里12点多了，有52°的老白干，也没啥菜，找了半天，有30来粒生花生米，怕没味，就弄了几瓣大蒜，这样喝一口酒，吃一粒花生米，嚼一点大蒜……战线拉的有点长，也不知道想啥，反正自己喝了一个多小时，半斤多白酒，第二天也没啥事，还挺精神！",
          "type": "long"
      },
      {
          "author": "陈一默",
          "link": "https://www.qiushibaike.com/article/124930328",
          "content": "下班回家，看见一个美女在直播，几个中年男子围观。美女看到我，举着手机跑过来说：大爷，您和我的家人们聊两句。\u003cbr/\u003e大爷？我无名火起：媳妇，你都51了，别在这里装嫩骗人了，跟俺走，接小孙子放学了。\u003cbr/\u003e美女不但不生气，反而笑盈盈地说：你看看我的手机。我好奇地凑过去，在手机屏幕上看到媳妇的大胖脸。\u003cbr/\u003e就听媳妇狮吼：回家再收拾你！小美女，我把钱打过去了。\u003cbr/\u003e美女关闭视频，走到那群“看热闹”的人中，那里还有一台手机，真的在直播，那些群演都是她们团队的。\u003cbr/\u003e美女说：宝宝们，你们看到了，这就是渣男，一个老渣男……",
          "type": "hot"
      },
      {
          "author": "无书斋主",
          "link": "https://www.qiushibaike.com/article/124906256",
          "content": "老婆的闺蜜离婚了，她很伤感，偎在我怀里感慨:老公，你说曼曼那么好，她老公离什么婚，曼曼嫁给他的时间，他什么也没有，现在不就当了个小领导吗？……\u003cbr/\u003e我小心翼翼:也可能是性格不合吧！！\u003cbr/\u003e\u003cbr/\u003e老婆突然大怒:性格不合性格不合，都谈了两年才结的婚，明明就是当领导了，有钱了，变坏了！！\u003cbr/\u003e\u003cbr/\u003e望着老婆最后说有钱了变坏了的咆哮……\u003cbr/\u003e\u003cbr/\u003e我十分难过:钱，我什么时间才能有钱？！！……",
          "type": "hot"
      },
      {
          "author": "可爱到家了",
          "link": "https://www.qiushibaike.com/article/124893925",
          "content": "绷不住了，北方人在雪地上写“羡慕吗 南方人 ”，南方人说他们吃冰棒 穿短裙 ，我卡在不南不北的地方 ，冻成傻狗还没有雪玩！！",
          "type": "hot"
      },
      {
          "author": "巴啦啦小魔仙呀",
          "link": "https://www.qiushibaike.com/article/124915587",
          "content": "老丈人给女婿两块钱：\u003cbr/\u003e孩子，这是你上次\u003cbr/\u003e帮我买的一个火机的钱！\u003cbr/\u003e女婿摆摆手：一家人计较什么，算了！\u003cbr/\u003e老丈人：还是清算一下比较好！\u003cbr/\u003e女婿大笑：不就是一个火机吗？至于这样？\u003cbr/\u003e老丈人：一个火机是不至于，\u003cbr/\u003e可你欠我的十万块钱这么多年了也不还，\u003cbr/\u003e不能算了呀！扣掉这两块，\u003cbr/\u003e还差九万九千九百九十八！[挖鼻孔]",
          "type": "hot"
      },
      {
          "author": "猫叔．",
          "link": "https://www.qiushibaike.com/article/125009938",
          "content": "搬家后家里的万家乐热水器出故障了，师傅上门就说吸气孔被软锡管套住了，露出来就好了。60块？！师傅说上门就60。万家乐，师傅更乐，就我难过…",
          "type": "hot"
      },
      {
          "author": "上凹下凸",
          "link": "https://www.qiushibaike.com/article/124893988",
          "content": "邻居家的空调外机声音很大，只要一开空调我的卧室就如同拖拉机一样的响……\u003cbr/\u003e今天实在忍不了了我去敲邻居的门，开门的是女主人，我希望让她设身处地感觉一下噪音，婉转的说：你能来我的卧室吗？\u003cbr/\u003e她脸一红，小声的说：今天不行，我老公在家……",
          "type": "hot"
      },
      {
          "author": "青龙路潇洒哥",
          "link": "https://www.qiushibaike.com/article/125011317",
          "content": "当我躲进衣柜的那一刹那，\u003cbr/\u003e我就知道，\u003cbr/\u003e一个比我更有资格爱你的人回来了。\u003cbr/\u003e当我看见衣柜还有人的时候，\u003cbr/\u003e我就知道，\u003cbr/\u003e爱你的不止我一个。\u003cbr/\u003e当我被从衣柜里揪出来的那一刻\u003cbr/\u003e我就知道\u003cbr/\u003e爱一个人是藏不住的。\u003cbr/\u003e当我和他四目相对的时候，\u003cbr/\u003e我就知道，\u003cbr/\u003e爱一个人是跑不掉的。\u003cbr/\u003e当我被问为什么在衣柜时，\u003cbr/\u003e我就知道，\u003cbr/\u003e爱一个人是解释不清的。\u003cbr/\u003e当他那一拳打过来的时候\u003cbr/\u003e我就知道\u003cbr/\u003e爱一个人迟早要受伤。",
          "type": "hot"
      },
      {
          "author": "秋水泛滥",
          "link": "https://www.qiushibaike.com/article/124991212",
          "content": "现在总有人爱打听别人的工资，我觉得这点很不好，因为如果我比你工资高，你会不高兴，如果你工资比我高，我会不高兴，何苦非要有一个人不高兴呢！\u003cbr/\u003e想明白了这个道理之后，别人问我工资，我就都说一万来块钱吧，反正也不是具体数字，别人也就不追问了。\u003cbr/\u003e有一次，同学聚会，特别要好的一个哥们问我工资，我说一万来块钱吧，我说你呢，他说差不多，一万多块钱吧！我俩相视一笑，干了一杯酒，真的是心有灵犀的一对兄弟啊！\u003cbr/\u003e他接着问我，你这一万来块钱，是来多少啊，具体点。我哈哈大笑说，三千，然后干了一杯酒。\u003cbr/\u003e我问他，那你这一万多块\n…",
          "type": "hot"
      },
      {
          "author": "归疚Š",
          "link": "https://www.qiushibaike.com/article/124986064",
          "content": "就在刚刚的时候，我躺在床上玩手机，突然之间我看见了一篇文章。文章的主要内容是：论喝刚烧开的水致命八大点。我仔仔细细的研究了这一篇文章之后，我只想补充最关键的也是作者落下的一点，那就是刚烧开的热水不能喝的主要原因是：会烫嘴。",
          "type": "hot"
      },
      {
          "author": "双鱼座的小仙女",
          "link": "https://www.qiushibaike.com/article/124939889",
          "content": "在登记新冠疫苗接种信息，刚好领导来登记，我笑着说，领导，你才45岁啊？\u003cbr/\u003e只见领导脸一黑，我心想坏了，赶紧解释说，我的意思是说，您不像是45岁的人！\u003cbr/\u003e领导一听脸更黑说，那我像多少岁的？",
          "type": "hot"
      },
      {
          "author": "南九",
          "link": "https://www.qiushibaike.com/article/125000630",
          "content": "初中的时候，武侠风盛行。\u003cbr/\u003e咯咯咯……\u003cbr/\u003e当时我上初二，我二叔家小弟上六年级，放假就天天跟着我混。\u003cbr/\u003e有一次在街上遇到几个学校的小混混，欺负我俩。我心里害怕，但是嘴上硬:没想到，你们几个居然敢欺负我这个练成铁头功的人。\u003cbr/\u003e小混混明显不信，冲着我头顶duangduang……就是两拳，头虽然很疼，但是我忍着疼笑道:怎么样？手疼么？我今天有事，就不施展铁头功了……在小混混惊讶的目光中，我带着我小弟从容离开。\u003cbr/\u003e没走多远，我小弟从后面激动地喊我:大哥，你练到第几层啦，这好事你咋不告诉我呢……\u003cbr/\u003e还没等我说话，我小弟\n…",
          "type": "hot"
      },
      {
          "author": "提莫莫酱呀！",
          "link": "https://www.qiushibaike.com/article/125046887",
          "content": "以前：宝宝，叫妈妈，来，叫妈～妈～，宝宝真棒！\u003cbr/\u003e现在：妈妈妈妈妈妈妈妈妈妈\u003cbr/\u003e…….你没有妈，你妈死了，我不是你妈。",
          "type": "hot"
      },
      {
          "author": "点赞的战斗驴",
          "link": "https://www.qiushibaike.com/article/124893532",
          "content": "媳妇去给幼儿园做核酸，说今天被18个小朋友威胁要叫奥特曼来揍她",
          "type": "hot"
      },
      {
          "author": "一个鸡蛋壳",
          "link": "https://www.qiushibaike.com/article/124895781",
          "content": "老妈说老家二楼顶子好像漏雨，让我哥趁没上冻回去给补补，我哥总说忙，我搭了一句话:“这点小事，我这女汉子出马分分钟搞定！”我妈考虑了一下跟我说:“别了，冬天也没大雨，你要是上去修不好再压一下，我怕到时候屋里飘雪花……”",
          "type": "hot"
      },
      {
          "author": "空城旧梦她与伞",
          "link": "https://www.qiushibaike.com/article/124976675",
          "content": "下班回到租房，女友生理期，她痛得抱着肚子滚在床 上，我站在一旁手足无措。\u003cbr/\u003e女友生气道：你一点不体贴我，我前男友，他会帮我煲生姜红糖水，还会轻轻帮我揉肚子。\u003cbr/\u003e我急道：那怎么办？你前男友不是去了北京吗？就算现在联系他，一时半会他也来不了啊。",
          "type": "hot"
      },
      {
          "author": "天热打鼓球",
          "link": "https://www.qiushibaike.com/article/124934680",
          "content": "儿子把刚买的乌龟放地板上，乌龟爬，他也爬，边爬边和乌龟说话：这里是客厅，这是沙发，别爬沙发底下去了，那边是走廊，走，带你去我房间看看啊……\u003cbr/\u003e\u003cbr/\u003e而小乌龟不管不顾，一直朝厨房的方向爬去，儿子纠正几次，都纠不过来，于是对我说：爸爸，这个乌龟是不是有点傻，会不会养不熟啊？\u003cbr/\u003e\u003cbr/\u003e我笑得泪水都快流出来了：傻孩子，这么有灵性的动物，怎么会养不熟呢？",
          "type": "hot"
      },
      {
          "author": "冷砚",
          "link": "https://www.qiushibaike.com/article/124924464",
          "content": "二十三床是一位00后女孩，清早查房时，看到她一边输液一边在玩游戏，好像是排位赛，很激烈的样子。\u003cbr/\u003e女孩玩的很投入。手上已经回血了，输液瓶子里都有红色的血液了，她都没发觉。\u003cbr/\u003e我推了一下她，她头都没抬，很生气地说：你怎么这么讨厌，本该我的人头被抢走了。\u003cbr/\u003e我说你回血了。女孩一看，吓得大喊：快来人啊，谁来帮我一下，那个辅助跑哪去了？给我补点血，至少你给我加个保护罩啊，我可是全队的最强输出……",
          "type": "hot"
      },
      {
          "author": "上凹下凸",
          "link": "https://www.qiushibaike.com/article/125060924",
          "content": "同学去找工作，看见招聘启事上写：待遇2000-20000上不封顶！\u003cbr/\u003e心想我折中点，应该能拿10000吧！\u003cbr/\u003e于是按地址来到“某某某餐饮管理公司”，老板热情的接待了他，再签了合同后，发了一辆做肉夹馍的小餐车给他，营业额三七分，让他遇到城 管跑快点……",
          "type": "hot"
      },
      {
          "author": "奶爸笔记本",
          "link": "https://www.qiushibaike.com/article/124925769",
          "content": "午饭，媳妇煮了汤饺。\u003cbr/\u003e我仔细一看:这饺子半沉不浮的，肯定还没煮透！\u003cbr/\u003e\u003cbr/\u003e十分钟后，她重新端进来了。\u003cbr/\u003e等我吃完，媳妇小声的问我:“熟吧？”\u003cbr/\u003e我满意的点点头:“嗯，熟。”\u003cbr/\u003e\u003cbr/\u003e“我根本就没再重新煮过！！”",
          "type": "hot"
      },
      {
          "author": "上凹下凸",
          "link": "https://www.qiushibaike.com/article/125001057",
          "content": "为了增加工作效率，避免大家上班时间玩手机游戏，老总推出了新规定：上班时间不能用手机，抓到一次扣一百；但是群里发布工作安排又必须第一时间回复，没及时回复的扣一百。\u003cbr/\u003e为了解决这个矛盾的问题，大家都改用电脑版的V信了，现在整个公司没人玩手机了，都改玩电脑游戏了……",
          "type": "hot"
      },
      {
          "author": "奶爸笔记本",
          "link": "https://www.qiushibaike.com/article/124918819",
          "content": "大头梨不大。。。\u003cbr/\u003e前几天我们这下大雪么，我媳妇要吃山楂，我妈命令我去买，买完回来脚下一滑我就掉沟里了，整的一身泥啊，回家我爸问我咋了，我说掉沟里了，我妈过来看看:山楂呢？没丢吧？",
          "type": "hot"
      },
      {
          "author": "洋哥不给力呀不给力…",
          "link": "https://www.qiushibaike.com/article/124917747",
          "content": "就刚刚的事。被老婆骗走了100块……\u003cbr/\u003e刚刚老婆过来跟我玩问答游戏，她问五个问题，每个问题的正确答案都只有一个字，必须1秒内做出回答，五个都对我就赢100，只要错1个就输给她100……于是LZ果断在桌上拍了100陪她玩！\u003cbr/\u003e她先问：“朋”的一半是什么？\u003cbr/\u003eLZ：月\u003cbr/\u003e她再问：“吕”的一半是什么？\u003cbr/\u003eLZ：口\u003cbr/\u003e第三问：“林”的一半是什么？\u003cbr/\u003eLZ：木\u003cbr/\u003e第四问：“出”的一半是什么？\u003cbr/\u003eLZ：山\u003cbr/\u003e第五问：“八”的一半是什么？\u003cbr/\u003eLZ（略微迟疑）：撇，或者捺？\u003cbr/\u003e老婆立马把钱拿走，然后说：答错了！八的一半是四啊笨蛋！\u003cbr/\u003eL\n…",
          "type": "hot"
      },
      {
          "author": "祝你新年快乐",
          "link": "https://www.qiushibaike.com/article/124916063",
          "content": "昨晚大哥大嫂回家，一脸不高兴，还以为吵架了。问他们怎么了？\u003cbr/\u003e我哥说前两天零食店店开业，很多人办会员卡，因为开业活动力度大（冲一百送15，冲200送40，冲500送120。）而且全场8折。\u003cbr/\u003e刚刚快要下班的时候，一大爷拿着会员卡说要退卡退钱。卡查了一下消费130多，还有480多块。问他为什么要退也不说就是说要退钱。按比例退钱还不行，硬说还有多少钱就必须退多少\u003cbr/\u003e   后来呢？\u003cbr/\u003e能怎么办？年纪那么大，也不容易，说也不敢说，动也不敢动啊。只能退钱啊。\u003cbr/\u003e合着花了十几块买了一\n…",
          "type": "hot"
      },
      {
          "author": "中国加油！！",
          "link": "https://www.qiushibaike.com/article/125037114",
          "content": "多年不见的同学突然问我借钱，我直接问：五万够么？他立马回复：够用够用，你小子可以啊，在哪发财呢？我微微一笑：没事，不够用你就说，我现在做信用抵押贷款！不用抵押房子，车子，有身份证就行！",
          "type": "hot"
      },
      {
          "author": "抢糖吃的坏女孩",
          "link": "https://www.qiushibaike.com/article/125053220",
          "content": "儿子三岁一个月一直是公公婆婆带。昨天晚上给我打电话说:妈妈，我想你头都想痛了。又给老公打电话说:爸爸，想你脚脚都想心慌了。我和老公差点哭了，开门关上上车轰油门跑回成都去看他。一进门儿子高兴的在原地打转笑得哈哈哈哈哈哈的。我内疚陪儿子太少，晚上想带着他睡。万万没想到呀，十点半的时候儿子对我和老公说:爸爸妈妈，你们快回去了吧，我和奶奶要睡觉觉了。😄😄😄老公说这里也是爸爸妈妈的家呀！儿子说不是，你和妈妈的家在都江堰。逗了好久儿子勉强让我和老公住下，他说:你们不准把我偷了哈！(以前趁他睡着了带他回\n…",
          "type": "long"
      },
      {
          "author": "浪漫的小乞丐",
          "link": "https://www.qiushibaike.com/article/124991294",
          "content": "和朋友聊天说没见过大草原的美，就像他们没见过大海的美一样。谁知道朋友这样说看大草原还不简单，你看自己的头就可以了！",
          "type": "hot"
      },
      {
          "author": "柚子皮苦",
          "link": "https://www.qiushibaike.com/article/124989544",
          "content": "高压锅烧到一半，我就把火关了，我怕他压力太大，大家都不容易[大哭]",
          "type": "hot"
      },
      {
          "author": "中国加油！！",
          "link": "https://www.qiushibaike.com/article/125017009",
          "content": "有一次没钱花了，就在网上里说：谁能借我点钱？这时一粉丝私我，叫我把卡号发给他，还真打了200块！我激动地叫他再打点，他说：傻孩子，我是你爸，哪有人给陌生人钱的？这之后，每天晚上我都和我爸聊天。半年后回到老家，我爸说他根本没上过网，妈的200块叫了那孙子半年爸！",
          "type": "hot"
      },
      {
          "author": "浪漫的小乞丐",
          "link": "https://www.qiushibaike.com/article/124898973",
          "content": "小时候搬到家属楼里，有一个只比我大一天的小姐姐拍着我肩膀说：小弟啊，这片不管多大的孩子都是我罩着，以后有人欺负你的时候报我的大名就可以了！\u003cbr/\u003e\u003cbr/\u003e虽说我是新来乍到，但总不会怕个女孩子吧！谁知道的是她居然是市体校的，好几个男孩子加起来都打不过她。尤其打我最，狠后来弃暗投明也做了她的小跟班。\u003cbr/\u003e\u003cbr/\u003e一年的时间飞逝，她家搬到生城去了，我从小跟班就成为新一任的孩子王。不过话说回来，她打我时的手劲还是蛮舒服的。\u003cbr/\u003e\u003cbr/\u003e直到谈恋爱后，女朋友打我的手法和她当年打我的手法如出一辙，好像又回到小时候，后来经过确定她就是当年得\n…",
          "type": "hot"
      },
      {
          "author": "红栀6",
          "link": "https://www.qiushibaike.com/article/125017679",
          "content": "南昌人做生意都比较精明。今天有人来买纸巾，老妈问他要五毛的还是一块的，顾客说要一块的，然后老妈递给他两包五毛的。",
          "type": "hot"
      },
      {
          "author": "奶爸笔记本",
          "link": "https://www.qiushibaike.com/article/124971797",
          "content": "两年多前买的电推剪。。。\u003cbr/\u003e从一开始，媳妇给我‘剃头’得给我四十，逐，渐的，给我二十，十，，再到之后，我剪发得求她还要倒给她十块！",
          "type": "hot"
      },
      {
          "author": "冷砚",
          "link": "https://www.qiushibaike.com/article/124937554",
          "content": "下了手术，到门诊打加强针。\u003cbr/\u003e两个人共用一支疫苗，由于耽误了点时间，轮到我时，后面没人了。等了半个多小时，来了一对小情侣。\u003cbr/\u003e护士看看那对小情侣，又看看我：要不，你再等等？\u003cbr/\u003e今天的风很大，我心疼地抱紧了自己……",
          "type": "hot"
      },
      {
          "author": "吃了两碗又盛",
          "link": "https://www.qiushibaike.com/article/124912580",
          "content": "一个月没回家了，刷牙时看着并排的三个牙杯竟认不出哪个是我的。\u003cbr/\u003e媳妇说，你就记住绿色的是你的准没错。\u003cbr/\u003e牙杯没有绿色的，但杯子里的牙刷有一个是绿色的，，，，\u003cbr/\u003e我特么，，也不刷牙了，赶紧把所有的帽子找出来，还好，只有黑白蓝三色。\u003cbr/\u003e下午，我从外面回来，儿子指着我的帽子说:你看上面写的啥？\u003cbr/\u003e我摘下来一看，黑帽子上印着白字:GREEN，，，，\u003cbr/\u003e耐耐滴!!",
          "type": "hot"
      },
      {
          "author": "冷砚",
          "link": "https://www.qiushibaike.com/article/124977098",
          "content": "楼下新开了一家川菜馆，带小侄子去吃饭。\u003cbr/\u003e拿过菜单，小家伙开始点菜：夫妻肺片……我想逗逗他，故作一脸惊恐：夫妻肺片啊？你也敢吃？老板要是没有材料了……想想都怕啊！\u003cbr/\u003e小家伙一脸嫌弃：姑姑，搞搞清楚好不好，夫妻肺片哎，即使没原材料了，也要找一对夫妻好不好？你一个单身狗怕什么？！\u003cbr/\u003e特么的，不请你吃了……",
          "type": "hot"
      },
      {
          "author": "鱼小小…",
          "link": "https://www.qiushibaike.com/article/124996991",
          "content": "在外地出差办事，因为事情比较顺利，所以就提前回家了。\u003cbr/\u003e想给老公惊喜，就没把这件事告诉我老公。。。\u003cbr/\u003e\u003cbr/\u003e但是谁料到回家之后，我发现我老公竟然偷偷地给我准备了生日惊喜。\u003cbr/\u003e我俩真是心有灵犀，我被感动得一塌糊涂……\u003cbr/\u003e\u003cbr/\u003e虽然我生日实际上是在下个月的中旬，但提前过又有什么不好的呢？",
          "type": "hot"
      },
      {
          "author": "滂臭滂臭的螺蛳粉",
          "link": "https://www.qiushibaike.com/article/125002952",
          "content": "男友两次在公司晋级失败了，然后一直郁郁。\u003cbr/\u003e\u003cbr/\u003e为了让男朋友开森起来，我决定陪他去大山游历，找高僧开导，放下执念，重新开始。\u003cbr/\u003e\u003cbr/\u003e经过我不懈的努力和坚持陪同，男友在第五天后一脸豁达的从长老房间走出，法相圆满:施主，您先回去吧，感谢您长久的照顾，红尘与我已无缘，青灯古佛伴窗前。",
          "type": "hot"
      },
      {
          "author": "空城旧梦她与伞",
          "link": "https://www.qiushibaike.com/article/124957658",
          "content": "堂弟今年二十八岁，还没有女朋友。\u003cbr/\u003e今天，他心事重重的对我说：哥，女同事小芬，本地人，她妈妈有三套房子，四个门面。她妈妈想要我上门，可是小芬比我大三岁……\u003cbr/\u003e我打断他的话：她这条件，你完全是高攀了啊，还有俗话都说，女大三，抱金砖。\u003cbr/\u003e堂弟急啦：你别打断我说话啊，我是说，小芬比我大三岁，这要是做她后爸，相处多尴尬",
          "type": "hot"
      },
      {
          "author": "陈一默",
          "link": "https://www.qiushibaike.com/article/124887941",
          "content": "第一次去女朋友家，她家人非常热情。\u003cbr/\u003e未来丈母娘给我夹一块粉蒸肉，大肥肉片子，和我的手掌一般大。\u003cbr/\u003e我勉强塞进口里，实在难以下咽：她们家的蒸肉偏甜，而且太肥了。\u003cbr/\u003e我趁着没人注意，把大肉片吐在手里，然后偷偷地甩到桌下。\u003cbr/\u003e没想到大肉片子“飞”到未来小姨子的脚上，小姨子“嗷”地一声跳起来，用手指着我，脸涨得通红：你……你……你……\u003cbr/\u003e未来岳父岳母对我怒目而视，女朋友直接把碗摔到我还在伸桌下的手上，离席而去……",
          "type": "hot"
      },
      {
          "author": "空城旧梦她与伞",
          "link": "https://www.qiushibaike.com/article/124922566",
          "content": "堂哥离婚后，新找了二十多岁的妹子，据说长得娇小可爱，而且皮肤 很好。堂哥为了讨她欢心，把家里所有东西都换成新的。\u003cbr/\u003e堂哥请我吃饭，算是第一次见新嫂 子。喝汤时，发现他家的勺 子很好看，一看就是那种高档瓷器 ，我不禁夸道：这新勺子小 巧玲珑、洁 白 如玉，让人爱 不释手啊。\u003cbr/\u003e吃完饭，堂哥送我到门口，郑重的说：兄弟，以后没什么事，别来了。",
          "type": "hot"
      },
      {
          "author": "无书斋主",
          "link": "https://www.qiushibaike.com/article/125001345",
          "content": "昨天和老婆在海底捞吃火锅！\u003cbr/\u003e老婆:大叔，我要喝奶茶，帮我去买！\u003cbr/\u003e老婆:大叔，再点个青菜吧！\u003cbr/\u003e老婆:大叔，抱下儿子！\u003cbr/\u003e老婆:大叔，我吃不完了，你吃！\u003cbr/\u003e大叔……大叔……大叔！\u003cbr/\u003e\u003cbr/\u003e买单的时间，听见隔壁桌的在骂我:不要脸的老不死，勾引人家媳妇还这么光明正大……！",
          "type": "hot"
      },
      {
          "author": "图图的耳朵会动耶",
          "link": "https://www.qiushibaike.com/article/124894434",
          "content": "网上下载了一百道应用题，放在一个文件夹里，上面写着斗 罗 大  陆，侄子看到了，追着让我给他看，我说这是付  费节目，会  员才可以看的，侄子财大气粗，从存钱罐里拿出一百块钱给我，大声说：给我充个会 员！不差钱！\u003cbr/\u003e我高兴地接过钱，严肃地对他说：充会员可以，咱们充了，打开了，就得坚持下去，不能半途而废，不然对不起这钱！\u003cbr/\u003e侄子连忙点头答应了，抢着打开文件夹，看着里面的应用题，，他一脸的生无可恋…",
          "type": "hot"
      },
      {
          "author": "柚子皮苦",
          "link": "https://www.qiushibaike.com/article/124990289",
          "content": "我乃农村人，偶做城中客。小学读过半卷书，坐井说天阔。大志梦功名，现实梦以破。待到囊中羞涩时，都是我的错啊！欲游山河十万里，伴我共蹉跎！囊中空肚子饿，夜无眠又害渴。乞讨天下人无数，施舍有几个。",
          "type": "hot"
      },
      {
          "author": "忧郁的创可贴",
          "link": "https://www.qiushibaike.com/article/124951939",
          "content": "有时候，不得不相信缘分这种事！\u003cbr/\u003e舅舅的儿子，我那表弟，走了桃花运，娶了我们镇上最有钱的女子。\u003cbr/\u003e舅舅舅妈和这个儿媳妇也真是有缘，他们三个人，都是同年同月同日出生在镇卫生院。",
          "type": "hot"
      },
      {
          "author": "南九",
          "link": "https://www.qiushibaike.com/article/124945722",
          "content": "昨天晚上女儿要吃雪糕。\u003cbr/\u003e咯咯咯……\u003cbr/\u003e不喜欢她吃太甜的东西，就跟她说:雪糕是夏天吃的，冬天本来就冷，吃了雪糕，肚子会疼，不让你吃雪糕是为你好。\u003cbr/\u003e女儿若有所思地点点头，转身去看书了。\u003cbr/\u003e晚上准备上床睡觉，找不到手机，老婆拨过去，发现关机了。\u003cbr/\u003e我喊女儿:宝宝，看到爸爸手机了嘛？\u003cbr/\u003e女儿在房间喊:爸爸，手机是白天用的，晚上天黑，玩手机，眼睛会疼，不让你玩手机是为你好…………",
          "type": "hot"
      },
      {
          "author": "陈一默",
          "link": "https://www.qiushibaike.com/article/124960903",
          "content": "表妹天天欺负表妹夫，表妹夫受不了只好求助老丈人。老丈人叹了口气：你找丈母娘问问。\u003cbr/\u003e丈母娘说：你媳妇从小就怕我，一会看我收拾她，你在旁边配合……\u003cbr/\u003e表妹夫把表妹找来，丈母娘一声狮吼：跪下！然后屋里三个人同时“噗通”跪下，丈母娘连忙搀起表妹夫和老丈人。\u003cbr/\u003e丈母娘对表妹说：你婚后对我女婿不好，今天我要大义灭亲，老头子，拿家法来。\u003cbr/\u003e表妹夫再次跪倒：妈，我愿意替媳妇接受惩罚。\u003cbr/\u003e丈母娘：她那么欺负你，你还替她受罚？\u003cbr/\u003e表妹夫：既然娶了她，我就接纳她的一切缺点，保护她一生，同时也承担她的一切错误。\u003cbr/\u003e表妹感动得跟什么\n…",
          "type": "hot"
      },
      {
          "author": "手镯启瓶器",
          "link": "https://www.qiushibaike.com/article/125058948",
          "content": "坐公交车，旁边坐着一个带着小孩的老大妈，小孩说：“奶奶，我饿了，咱们去吃汉堡吧！”只听那老大妈说：“宝贝，你数一数路边有多少棵树，到终点站告诉我，我们就去吃汉堡好不好？”小孩点点头。快到站时，小孩倒在大妈怀里，说：“奶奶，我头有点晕。”说完便睡着了。大妈这招高啊！不愧是活了大半辈子的人。",
          "type": "hot"
      },
      {
          "author": "中国加油！！",
          "link": "https://www.qiushibaike.com/article/124907763",
          "content": "刚刚给10086发了个信息，我好寂寞。结果10086给我回了个，那就来嘛，死鬼。我瞬间吓尿了，赶紧放下了姐夫的手机。",
          "type": "hot"
      },
      {
          "author": "星劫",
          "link": "https://www.qiushibaike.com/article/124938430",
          "content": "闲着没事做代驾，遇上各种奇葩，最奇葩的就是下面这位。\u003cbr/\u003e我接单后到了目的地，看不见车，只有一个十四五岁的小孩儿跟我招手。\u003cbr/\u003e小孩儿说，代驾是我叫的。\u003cbr/\u003e我问他车呢？他指了指身后的自行车说，喏，就这个，我实在蹬不动了，你帮我蹬回去吧。\u003cbr/\u003e我蹬着自行车，小孩子骑着我的小电车一直在旁边给我加油使劲蹬，当时我的心情真的是挖槽挖槽的……",
          "type": "hot"
      },
      {
          "author": "胖香",
          "link": "https://www.qiushibaike.com/article/124940117",
          "content": "我哥头发浓密，但是打小就有少白头，我嫂子刚才兴致勃勃的说想给他薅白头发……割碗哥的……我哥默默的回:“我哪惹你生气了你吱声，就我这满头华发的，等你薅完了我成葛优！”",
          "type": "hot"
      },
      {
          "author": "陈一默",
          "link": "https://www.qiushibaike.com/article/125067167",
          "content": "媳妇要做美食博主，无奈蒸出来的包子品相不好。她想到一个妙招：买来馒头，把芯儿抠出来，再把肉馅塞进去。\u003cbr/\u003e接下来拍吃包子视频。慑于媳妇的威严，我强吃了两个，然后对着镜头夸道：媳妇做的包子，薄皮大馅太好吃了。\u003cbr/\u003e儿子看到了，让他妈妈先关了视频，说：您这包子那么厚的皮儿，怎么吃啊！再说，你见过没有褶的包子吗？你先调馅、擀皮拍视频，然后直接买现成的包子上传，不是更省事嘛？",
          "type": "long"
      },
      {
          "author": "牛奋。",
          "link": "https://www.qiushibaike.com/article/124983820",
          "content": "刚刚我们这边地震了（广西），我当时在拉粑粑我老婆直接冲进来吧我拖了出去来，你们知道那种一边被拖着一边拉着粑粑的感受吗[打脸][打脸][打脸]",
          "type": "hot"
      },
      {
          "author": "怂包妇女主任",
          "link": "https://www.qiushibaike.com/article/124924536",
          "content": "我家金毛很喜欢吃华莱士的鸡腿，然后每次吃了上火，就不给它吃。\u003cbr/\u003e那天我们又买了一大堆，看着金毛流哈喇子，我们都快笑抽了。\u003cbr/\u003e金毛等了我们一会儿，看我们不会给它吃了，就把气撒在我们家三只猫身上，我家那些猫可横了，三只围着金毛挠，几只在桌子底下打的不可开交，强大的力量把我们桌子都掀掉了。\u003cbr/\u003e望着满地的鸡腿，我们不免可惜，金毛一脸无辜的望着我们，然后开始试探性的吃地板上的鸡腿。",
          "type": "hot"
      },
      {
          "author": "无书斋主",
          "link": "https://www.qiushibaike.com/article/124963969",
          "content": "刚分配工作那会，虽然工资不高，但怎么说也是在省城，爸妈还是觉得挺有面子的！\u003cbr/\u003e一旦有人问他孩子在做什么时，爸妈就会很自豪的说:我二儿子在长沙工作，省城！！\u003cbr/\u003e\u003cbr/\u003e老家在湘西大山里，父老乡亲那时确实很艰苦，一年到头就只混个吃喝，没什么闲钱！……\u003cbr/\u003e每年回家过春节，来我家玩的堂兄堂弟，每人发一包白沙烟，他们开心得不得了，非得接我到他家吃顿饭！\u003cbr/\u003e\u003cbr/\u003e对了，我刚工作是99年，那个时间工作还不是很好找，在广东打工的普通员工应该只有三四百一个月，好像时间还蛮长！！\u003cbr/\u003e其实，我也只有五百多的工资，年底发点奖励也不过六七百\n…",
          "type": "hot"
      },
      {
          "author": "艾玛*^o^*ZW…",
          "link": "https://www.qiushibaike.com/article/125051886",
          "content": "赶晚了，检完票，火车快开了。我跑得快，先跑进了车厢，乘务员小哥哥说：你是最后一个乘客了吧？我看着他帅气的脸说：嗯，对的。\u003cbr/\u003e小哥哥又瞧了瞧窗外说：你认识那个还在跑的小胖子吗？我连忙往外一看，男朋友背着大书包正哼哧哼哧跑过来。看着他吃力的样子，我皱着眉头说：那是我弟弟乔治，",
          "type": "hot"
      },
      {
          "author": "2B学弟",
          "link": "https://www.qiushibaike.com/article/124935312",
          "content": "有了孩子以后，老婆的梦想有二。一曰拥有婴儿般的肌肤；二曰拥有婴儿父亲般的睡眠。",
          "type": "hot"
      },
      {
          "author": "漫.步.人.生.路…",
          "link": "https://www.qiushibaike.com/article/125019987",
          "content": "同事昨天刚结婚，今天就住院了，大家带着礼物去看他，新婚妻子正守在病床前，一脸的娇羞。趁着同事妻子出去的档口，一个大姐问：“你们干嘛呢？新婚燕尔的就打架？”同事说：“姐啊！我媳妇早上醒来，发现被窝多了一个人，一脚就把我踹出去了！”\u003cbr/\u003e转",
          "type": "hot"
      },
      {
          "author": "可爱到家了",
          "link": "https://www.qiushibaike.com/article/124922404",
          "content": "第一次做饭 问朋友口味咋样 他说：“这盐炒的不错 有淡淡的菜香”",
          "type": "hot"
      },
      {
          "author": "偷惢",
          "link": "https://www.qiushibaike.com/article/124995723",
          "content": "老公开车送我陪孩子打疫苗，路上孩子害怕哭着不要去，我耐心讲了许久的道理又说好给奖励，孩子才勉强不哭答应去打疫苗。\u003cbr/\u003e刚缓口气，老公:“我小时候也怕打针，那玩意可疼了，打一次哭一次。”\u003cbr/\u003e望着又开始哇哇大哭的孩子，再看看一脸无辜的老公，我……！",
          "type": "hot"
      },
      {
          "author": "说朋实己",
          "link": "https://www.qiushibaike.com/article/124923113",
          "content": "某男在一个挺多公寓楼的小区买了套公寓养小三。原配火冒三丈来找。结果疫情小区封了。三个人被封一套40平小公寓里。而且这户型只一个卧室。估计气的脸都黑了。",
          "type": "hot"
      },
      {
          "author": "上凹下凸",
          "link": "https://www.qiushibaike.com/article/125057838",
          "content": "朋友在学校和几个留学生关系很好，没事就一起喝酒相互吹捧……\u003cbr/\u003e昨天喝醉了，对一个留学生说：兄弟，你那英语说的可真溜啊！\u003cbr/\u003e那个留学生脸一红，不好意思的说：老大，我本来就是英国人啊！",
          "type": "hot"
      },
      {
          "author": "中国加油！！",
          "link": "https://www.qiushibaike.com/article/124896051",
          "content": "昨天第一次坐飞机，买了头等仓的票！在头等舱候机室候机……因为饮料在安检时被扣了！所以去冰箱拿了瓶加多宝去柜台问多少钱…美女回答：先生，我们头等舱候机室的所有东西都是免费的！我知道机会来了，等的就是这句话：那你出来跟我走吧……！",
          "type": "hot"
      },
      {
          "author": "猴.胖.子",
          "link": "https://www.qiushibaike.com/article/124955434",
          "content": "楼下的大爷经常抱着狗遛弯，那狗子看着也不小了，至少30斤以上，有次忍不住了，问问，您不让它下来走走？大爷说，狗子得糖尿病了，刚打了胰岛素，不爱动。再看那狗子，慵懒的打个哈欠，眯着眼继续打盹了，我突然觉得怀里抱着的那位才是大爷",
          "type": "hot"
      },
      {
          "author": "尐飯團",
          "link": "https://www.qiushibaike.com/article/125001953",
          "content": "老板画的饼，就像拼夕夕抢红包，看着很近就是永远得不到",
          "type": "hot"
      },
      {
          "author": "上凹下凸",
          "link": "https://www.qiushibaike.com/article/125017768",
          "content": "和朋友喝酒，旁边一桌有个带墨镜的吹嘘：我能用耳朵听出硬币正反！\u003cbr/\u003e朋友不乐意了：大晚上戴墨镜，你装熊猫啊？我和你打赌猜正反，输了我倒立吃翔！\u003cbr/\u003e墨镜男立马答应……\u003cbr/\u003e十次过后朋友输了，墨镜男笑了笑，摸了下旁边的拐杖说：第一次遇见有人和瞎了三十年的盲人比听力的……",
          "type": "hot"
      },
      {
          "author": "薛家小姐姐",
          "link": "https://www.qiushibaike.com/article/124996901",
          "content": "和闺蜜逛街，我俩买了一套一模一样的内衣，回到家想穿上看看，老公直勾勾的看着两眼放光，我边穿边说闺蜜我俩买的一样的，他听了说：你穿上拍个照发过去刺激她一下，她一定会拍更性感的发过来……听他的拍了发过去，不一会闺蜜发来信息：“我老公说你的身材很哇塞……”我……",
          "type": "hot"
      },
      {
          "author": "糗友072649",
          "link": "https://www.qiushibaike.com/article/124994213",
          "content": "儿子问妈妈：“妈妈，我是从哪里来的？”老婆耐心地解释：“你原来在妈妈的肚子里，后来慢慢长大了，就从妈妈的肚里出来了。”儿子若有所思，又问：“那是谁把我装到妈妈肚子里的呢？”老婆看了我一眼：“除了你爸还能是谁！”",
          "type": "hot"
      },
      {
          "author": "老巫婆～～",
          "link": "https://www.qiushibaike.com/article/125006046",
          "content": "隔壁家小美女读高三，每天最常挂在嘴边的一句话就是：累成狗了！听多了的我实在忍不住对她说：其实，狗并没有你这么累的！小美女沉默了两秒：姐，你瞎说什么大实话！",
          "type": "hot"
      },
      {
          "author": "~福满多~",
          "link": "https://www.qiushibaike.com/article/124944434",
          "content": "当我躲进衣柜的一刹那\u003cbr/\u003e我就知道一个比我更有资格爱你的人回来了\u003cbr/\u003e当我被从衣柜拖出来的那一刻\u003cbr/\u003e我就知道爱一个人是藏不住的\u003cbr/\u003e当我被打一顿的时候\u003cbr/\u003e我觉得爱一个人是痛苦的[笑哭]\u003cbr/\u003e\u003cbr/\u003e没地方收藏，放到这里吧",
          "type": "hot"
      },
      {
          "author": "无书斋主",
          "link": "https://www.qiushibaike.com/article/125012302",
          "content": "祖父的堂弟，生了八个女儿后，还想要个儿子！\u003cbr/\u003e为了得个儿子，他拜庙求子，得道高僧告诫:多做好事，不问前程！\u003cbr/\u003e\u003cbr/\u003e自这以后，堂祖父一心行善，三年光景，散尽了近百亩田产。\u003cbr/\u003e苍天有眼，第四年，花甲之年的堂祖母又有了动静！！\u003cbr/\u003e\u003cbr/\u003e一个月明星稀之夜，堂祖母即将临盆，只是，接生婆前前后后忙了一天，还是接不下来……\u003cbr/\u003e晚上十点，接生婆红着眼哽咽:这年纪太多，还生什么生，现在一尸两命，报应啊报应！！\u003cbr/\u003e\u003cbr/\u003e堂祖父也是嚎啕大哭:我一心行善，散尽了家产，贼老天你为什么这么对我！！\u003cbr/\u003e我到底是做错了什么？难不成要我为恶？好吧，以后\n…",
          "type": "hot"
      },
      {
          "author": "猴.胖.子",
          "link": "https://www.qiushibaike.com/article/125003159",
          "content": "老丈人自从做了一个心脏支架后，就开始注意饮食，加强运动，每天跑步10公里以上，昨天心绞痛又住院了，心血管又有了新的堵点，老丈人说，妈个X白他妈运动了",
          "type": "hot"
      },
      {
          "author": "冷砚",
          "link": "https://www.qiushibaike.com/article/125004606",
          "content": "一台手术做下来，站了近六个小时，腰酸腿疼的，好在比较成功。\u003cbr/\u003e主任看了美女助手小文一眼：你把刀口缝合一下。小文吐了一下舌头：主任，我手都捏不住针了……\u003cbr/\u003e主任回头看到了我：交给你了！\u003cbr/\u003e主任，我也是血肉之躯，也累呀！灵机一动，我也冲主任吐了一下舌头，主任被气乐了：乔啊，我们的暖气热吗？你需要散热？！",
          "type": "hot"
      },
      {
          "author": "寒山宽洪",
          "link": "https://www.qiushibaike.com/article/124978920",
          "content": "小学毕业的老白，不懂如何区分正能量和负能量，去请教见多识广的文化人老吕，老吕是这样讲解的：坐火箭上天，乘深潜器入海，玩蹦极，过山车是正能量；办保险公司，开药店，卖棺材，做纸活，就属于负能量。这老白还不大懂，老吕进一步解释：笑是正能量，哭是负能量；说话是正能量，放屁是负能量……",
          "type": "hot"
      },
      {
          "author": "忧郁的创可贴",
          "link": "https://www.qiushibaike.com/article/124936248",
          "content": "读大一时候的事。那个月的月底，一个师兄介绍我晚上去当地一家小型床垫厂，做模特。就是躺在床垫上不露脸，拍几张照片，做广告那种。\u003cbr/\u003e月初过了几天，我妈打电话过来：这几天我忙，忘记寄生活费给你了，你这几天吃的啥？\u003cbr/\u003e我笑嘻嘻道：妈，没事。前几天，我晚上去做了兼职，不累，躺在床 上就能赚 钱那种。\u003cbr/\u003e第二天，远在几百公里外的我父母，忧心忡忡的出现在学校大门口。",
          "type": "hot"
      },
      {
          "author": "陈一默",
          "link": "https://www.qiushibaike.com/article/125049687",
          "content": "前年，第一次带媳妇回老家过年。\u003cbr/\u003e下午，老妈洗头，让把吹风机拿过去。\u003cbr/\u003e我在玩游戏，便叫媳妇去拿，媳妇说找不到。老妈顶着湿漉漉的头发出来了，问，为什么不送吹风机？我说你儿媳妇找不到。\u003cbr/\u003e老妈说：你告诉她在哪里了吗？\u003cbr/\u003e我也不知道在哪里呀！老妈一脚踹过来：你在家二十八年了都不知道，我儿媳妇刚回来，她怎么会知道的？",
          "type": "hot"
      },
      {
          "author": "-蝎妮女侠-",
          "link": "https://www.qiushibaike.com/article/125056779",
          "content": "和老公吵架，生气一天没吃饭，婆婆和奶奶的态度让我……。\u003cbr/\u003e她们刚吃过晚饭，却还在厨房里煮好吃的，于是便进去\u003cbr/\u003e问：“她们不是刚吃过饭了，怎么还在做饭。”\u003cbr/\u003e婆婆说：“这是做给你吃的，你一天不吃饭不会饿啊？”\u003cbr/\u003e我：“哎呀，我不想吃，我不饿。没胃口。”\u003cbr/\u003e婆婆说：“你傻啊，吃饱了才有力气跟他吵。”\u003cbr/\u003e奶奶说：“那可不是，我跟你老爷吵架从来都不亏待自己。”\u003cbr/\u003e这时二货老公进来拉我出去。我没好气的对他说：“有事说事，别对我动手动脚的。”\u003cbr/\u003e婆婆说：“哎呀，他花钱娶的媳妇还不能碰了，打官司都\n…",
          "type": "long"
      },
      {
          "author": "吃了两碗又盛",
          "link": "https://www.qiushibaike.com/article/124952733",
          "content": "我媳妇爱唱歌，爱运动，爱交朋友。有次聊起我们老了以后会怎么样，我说像你这样活泼的老太太找老头肯定好找。\u003cbr/\u003e我媳妇疑惑地看着我:我为啥要找老头？你哪去了？\u003cbr/\u003e对哈，我哪去了？",
          "type": "hot"
      },
      {
          "author": "冷砚",
          "link": "https://www.qiushibaike.com/article/124946474",
          "content": "门诊。\u003cbr/\u003e一个五六十岁的大爷，咽喉痛，低热，初诊为扁桃体炎。由于症状较轻，就跟他说:没大事，吃点阿莫西林就好了。大爷说家里有，就没开药，嘱咐他注意事项之后，他就离开了。\u003cbr/\u003e几天后，大爷又来了:大夫，我这吃了快一箱了，怎么没什么效果啊？\u003cbr/\u003e我一听，顿时花容失色，浑身直冒冷汗:你是怎么吃的，怎么这几天就吃了一箱？\u003cbr/\u003e老大爷:就是每天吃上一两盒啊！\u003cbr/\u003e我战战兢兢:一天吃一两盒？多少粒的？\u003cbr/\u003e老大爷:里面不是液体的吗？还挺稠，甜甜的。\u003cbr/\u003e我彻底懵了:你吃的什么？\u003cbr/\u003e老大爷:安慕希啊，你不是说吃点安慕希就好了吗？",
          "type": "hot"
      },
      {
          "author": "实名八庄马大成",
          "link": "https://www.qiushibaike.com/article/125006291",
          "content": "从公司出来时老板娘拿出一大串香蕉，每人发一根，说是前几天买多了再不吃坏了。。。\u003cbr/\u003e\u003cbr/\u003e等公交车时我们都吃了皮扔垃圾桶了，只有老张说是到工地吃，可是上车时人多，把他的香蕉挤烂了，只能在车上吃了，然后就提着香蕉皮，准备下车扔垃圾箱里……\u003cbr/\u003e\u003cbr/\u003e车子一个急刹,他手里的香蕉 皮掉地上了，他边上一大妈的直接 来说了句：你们农村人真没素质，随地丢垃圾！！！\u003cbr/\u003e说完弯腰捡起香蕉皮随手往窗外就丢。。。\u003cbr/\u003e\u003cbr/\u003e总点来了，这是空调车。。。\u003cbr/\u003e你要想要座位我可以让你的！！！",
          "type": "hot"
      },
      {
          "author": "懶懶の貓",
          "link": "https://www.qiushibaike.com/article/125026799",
          "content": "下班回家的时候，已经九点半了。\u003cbr/\u003e媳妇躺在床上，背对着我的方向闭着眼睛。我猜她已经睡着了，小心翼翼地准备帮她关掉她那边的壁灯……\u003cbr/\u003e\u003cbr/\u003e我刚走到她身边，她突然睁开眼睛，泪眼婆娑地看着我。\u003cbr/\u003e我看着媳妇这委屈的表情，赶忙道歉，“媳妇你这是怎么了，是不是我回来太晚，你不开心？可是你要明白，为了生活……”\u003cbr/\u003e\u003cbr/\u003e媳妇听着我的解释，委屈的表情愈发强烈，最后她终于克制不住自己的情感，嚎啕大哭起来，“别……别说了，我马上要尿床了，快……快憋不住了！”",
          "type": "hot"
      },
      {
          "author": "0.0星座",
          "link": "https://www.qiushibaike.com/article/124907183",
          "content": "卧槽！手机真有监听吗？刚和媳妇聊了现在天气干，嘴唇干裂的事，不到半个小时，打开百度就看到推送的这方面的文章，而且还卖唇膏！以前从没刷到过这样的文章……",
          "type": "hot"
      },
      {
          "author": "我叫布吉岛。。。",
          "link": "https://www.qiushibaike.com/article/124901957",
          "content": "逛超市，看到调料区打折，遂挤进去看看，正看着，一大妈问我:“请问这个酱油多少钱呀？”\u003cbr/\u003e我看了一下:14块9\u003cbr/\u003e大妈:这个打几折呀？\u003cbr/\u003e我又看了一下:6点5折\u003cbr/\u003e大妈:那是多少啊？\u003cbr/\u003e我继续热心的不假思索的答到:不知道[呵呵]",
          "type": "hot"
      },
      {
          "author": "中国加油！！",
          "link": "https://www.qiushibaike.com/article/124928959",
          "content": "本人女，长得比较瘦小，今天去相亲时听到对方妈妈在嘀咕道：这么瘦小能不能怀孕呀？我就说：阿姨你放心，我就是为我肚子里孩子来找爹的！",
          "type": "hot"
      },
      {
          "author": "叶落紫枫",
          "link": "https://www.qiushibaike.com/article/124962281",
          "content": "今天去贴手机膜问师傅：“多少钱？”“10块。”“能便宜点不”师傅：“膜，10块，免费贴膜。”我听了这话默默的从兜里拿出一张膜。。。",
          "type": "hot"
      },
      {
          "author": "猴.胖.子",
          "link": "https://www.qiushibaike.com/article/124903690",
          "content": "当年，去华为应聘，15分钟，20页卷子，啥问题都有，连一半都木有做完，时间就到了，更别说后续面谈了。这一套卷子就把多一半人挡门外了",
          "type": "hot"
      },
      {
          "author": "半截烟云",
          "link": "https://www.qiushibaike.com/article/124892863",
          "content": "读书时，想给暗恋的男神送上一条自己亲手织的围巾，颜色都想好了，就是他喜欢的白色。\u003cbr/\u003e\u003cbr/\u003e各种学习，费了九牛二虎之力，终于完成了。除了比一般的围巾长点，窄点，没啥大毛病。\u003cbr/\u003e\u003cbr/\u003e也是巧，围巾刚织好没两天开始降温，男神月考没考好，正一个人在座位上郁郁寡欢。\u003cbr/\u003e\u003cbr/\u003e天赐良机，我默默的走到他身边，轻轻的把围巾挂在他的脖子上说：送你的！\u003cbr/\u003e\u003cbr/\u003e男神果然很感动的说：我就是一次月考没考好，不至于要被赐 死吧？",
          "type": "hot"
      },
      {
          "author": "实名八庄马大成",
          "link": "https://www.qiushibaike.com/article/124976913",
          "content": "礼拜天儿子回家，玩电脑不睡觉，关键是声音还开的挺大的，老婆去规劝了几次都不睡。\u003cbr/\u003e结果简单关电，粗暴地揍他一顿，老老实实的躺床上了。。。\u003cbr/\u003e毕竟自从上了大学回来就少了，心里过意不去，过去看看，顺便安慰安慰他。\u003cbr/\u003e他转过脸来对我道：老爸，你老婆也该修理修理了，今晚打的是我，明天我可回学校了，你好好想想吧。。。。",
          "type": "hot"
      },
      {
          "author": "老巫婆～～",
          "link": "https://www.qiushibaike.com/article/125037335",
          "content": "小侄女把我的化妆品搞的乱七八糟，气的我想揍她，刚举起手，她就委屈的说：我只是想变得和姑姑一样漂亮！好吧～瞬间我就没脾气了[嘿嘿]",
          "type": "hot"
      },
      {
          "author": "追疯逐浪",
          "link": "https://www.qiushibaike.com/article/124952643",
          "content": "儿子犯错又把媳妇儿惹生气了，躺在床上不动，我回来教训了他一顿，对他说：看你天天气你妈，哪天气死了，你就没妈了，老子找个后妈天天打你！这下好了，媳妇儿更伤心了。",
          "type": "hot"
      },
      {
          "author": "中国加油！！",
          "link": "https://www.qiushibaike.com/article/124989622",
          "content": "在超市看到一个美女弯腰在挑东西，翘臀是如此完美、诱人！我情不自禁的走过去，伸手在屁屁上拍了一巴掌，美女愤怒的转过头来......我举起手里的棒棒糖，说：“姐姐，吃棒棒糖么？” 美女无奈的说：“我不吃，谢谢小朋友！”....... 我觉得身高有时候也是一种优势",
          "type": "hot"
      },
      {
          "author": "点赞的战斗驴",
          "link": "https://www.qiushibaike.com/article/124901086",
          "content": "中午去公司底下小饭店吃饭，点了份炒饼，等的时候媳妇来电话，聊了几句后她问我晚上想吃啥？我说我要吃鱼香肉丝和小炒肉，挂了电话后，服务员不一会儿给我端上了炒饼，鱼香肉丝和小炒肉，我说我只点了炒饼，其他的是我电话里面和我媳妇说要晚上吃的，而且这么多我一个人也吃不了啊，但是看着服务员可怜巴巴的看着我又于心不忍，于是说算了我吃吧，吃着吃着感觉主食不够于是又要了一份米饭，服务员端着米饭眉飞色舞的说：大哥我没看错你就是能吃啊！",
          "type": "hot"
      },
      {
          "author": "就是疯子我",
          "link": "https://www.qiushibaike.com/article/125010834",
          "content": "今天洗脸擦脸时发现这条毛巾好像用了五六年了！也不是没钱，现在经过我的努力，一个星期也能吃一次肉，拉屎也用纸擦不用棍刮了，这生活也不比谁差，但还是改不了节俭的习惯！",
          "type": "hot"
      },
      {
          "author": "啊哈儿老师",
          "link": "https://www.qiushibaike.com/article/125015203",
          "content": "媳妇儿下床，去上卫生间，短短五米一串响屁，我说媳妇儿啊！我说你这，走着路还配着音，结果我顺利的搬到了沙发上睡觉去了",
          "type": "hot"
      },
      {
          "author": "知——秋",
          "link": "https://www.qiushibaike.com/article/124913278",
          "content": "这段时间，侄子经常带一个小男孩回家，两人一起写作业，一起玩游戏……我问侄子：这是你的新朋友吗？侄子小声告诉我：这是我的新情敌。我俩都喜欢班花。我和他玩，才能知己知彼、百战百胜。",
          "type": "hot"
      },
      {
          "author": "陈一默",
          "link": "https://www.qiushibaike.com/article/125025602",
          "content": "老板脸上经常挂彩，伤处起小泡。\u003cbr/\u003e我见他偷偷地抹达克宁，便悄悄告诉他，晚上把嫂子的脚趾甲剪短。老板看我的眼神很复杂。\u003cbr/\u003e我连忙解释：你用脚气水，说明脸上的伤感染了脚气，可以推断是光脚造成的。除了嫂子，谁也不会光脚踢你的脸……\u003cbr/\u003e老板如释重负，我也淡笑着回到自己的座位上，他哪里知道，我媳妇晚上睡觉也爱踢人……",
          "type": "hot"
      },
      {
          "author": "冷砚",
          "link": "https://www.qiushibaike.com/article/125029209",
          "content": "门诊。\u003cbr/\u003e一帅哥，自述头痛头晕。我一边输入身份证，一边说：大哥，我给你量一下血压！刚说完，才发现帅哥比我小两岁，瞬间有点尴尬。\u003cbr/\u003e诊疗结束后，帅哥站起身，客气地说道：谢谢阿姨！我一定按时吃药，阿姨再见……",
          "type": "hot"
      },
      {
          "author": "怂包妇女主任",
          "link": "https://www.qiushibaike.com/article/124933287",
          "content": "吃了很多天某福的麻辣烫，刚开始觉得巨香，连吃了两餐，感觉吧，上大号拉粑粑都有麻辣烫的香味。\u003cbr/\u003e现在人力行Z到处在查，谁违反G定在厕所吃麻辣烫了，一厕所的麻辣烫味道，还以为进了麻辣烫馆子，差点准备带食堂的自用筷子了。",
          "type": "hot"
      },
      {
          "author": "偷惢",
          "link": "https://www.qiushibaike.com/article/125037380",
          "content": "下班回家看到老公和他兄弟俩人在喝酒，为了显示我的温柔懂事，特意下厨给他俩加做个油焖大虾。\u003cbr/\u003e做完就忙我的去了，过会出来发现他俩在划拳，谁输了谁吃一口……",
          "type": "hot"
      },
      {
          "author": "唐僧熟了",
          "link": "https://www.qiushibaike.com/article/124988453",
          "content": "表叔家有个果园，现在杏子桃子都成熟了，又是采摘又是卖的，让我帮忙看一下，也就是中午吃饭回来的当口，远远看见一个少妇从公路旁边左顾右盼的进果园了，从她的反常举止我料定这一定是小偷。于是，我加快了脚步冲过去。从她入园的位置进去一看，不料，她顿时大叫了起来，真不知道她只是内急而已……",
          "type": "hot"
      },
      {
          "author": "冷砚",
          "link": "https://www.qiushibaike.com/article/124949021",
          "content": "开会中。\u003cbr/\u003e我们主任重感冒，十分钟不到，换了三个口罩了。由于频繁出入会场，领导的脸色明显不太好看了。\u003cbr/\u003e科室几个人的备用口罩都被他用光了，他只好拿出面巾纸，垫在最后一个口罩里。\u003cbr/\u003e王姐看见了，急忙从包里翻出一物，小翅膀分外惹眼：把这个垫口罩里，超强吸水……",
          "type": "hot"
      }
  ]
