<info>-<main.go><59><func serverMain>: 服务端运行中: 127.0.0.1:8080
<info>-<process.go><48><func FindProcess>: 等待客户端.......
<info>-<readWritePkg.go><72><func ReadPkg>: 读取消息类型是 1, byte长度是 29
<info>-<process.go><57><func FindProcess>: 收到客户端信息: message.MessageDataR{Type:0x1, Data:[]uint8{0x7b, 0x22, 0x49, 0x64, 0x22, 0x3a, 0x22, 0x61, 0x64, 0x6d, 0x69, 0x6e, 0x22, 0x2c, 0x22, 0x50, 0x77, 0x64, 0x22, 0x3a, 0x22, 0x31, 0x32, 0x33, 0x34, 0x35, 0x36, 0x22, 0x7d}}
<error>-<accountModel.go><22><func CountExist>: Mysql Query fail: Error 1054: Unknown column 'admin' in 'where clause'
<error>-<process.go><204><func loginProc>: 用户不存在
<error>-<process.go><254><func write_login_rej>: 用户登录失败: 用户不存在
<info>-<readWritePkg.go><31><func WritePkg>: 发送消息类型是 3, byte长度是 11
<info>-<process.go><63><func FindProcess>: 客户端登录: &{{0xc000101180}}; 账号:  ()
<info>-<process.go><48><func FindProcess>: 等待客户端.......
<info>-<readWritePkg.go><55><func ReadPkg>: 1. 读取消息失败, err: EOF
<error>-<process.go><52><func FindProcess>: 客户端失联: &{{0xc000101180}}
<info>-<friends.go><102><func FriendsSelect>: FriendsSelect: []
