module gui/examples/progressindicator


go 1.18

require github.com/lxn/walk v0.0.0-20210112085537-c389da54e794

require (
	github.com/lxn/win v0.0.0-20210218163916-a377121e959e // indirect
	golang.org/x/sys v0.0.0-20220520151302-bc2c85ada10a // indirect
	gopkg.in/Knetic/govaluate.v3 v3.0.0 // indirect
)
require (
	github.com/lxn/walk v0.0.0-20210112085537-c389da54e794
	github.com/lxn/win v0.0.0-20210218163916-a377121e959e // indirect
	golang.org/x/sys v0.0.0-20220520151302-bc2c85ada10a // indirect
	gopkg.in/Knetic/govaluate.v3 v3.0.0 // indirect
)
