module gui/examples/listbox-own

go 1.15

require (
	github.com/lxn/walk v0.0.0-20200924155701-77185e9c4aec
	github.com/lxn/win v0.0.0-20191128105842-2da648fda5b4
	gopkg.in/Knetic/govaluate.v3 v3.0.0 // indirect
)
