module gone/client

go 1.18

require (
	github.com/lxn/walk v0.0.0-20210112085537-c389da54e794
	github.com/lxn/win v0.0.0-20210218163916-a377121e959e
	golang.org/x/sys v0.0.0-20220615213510-4f61da869c0c // indirect
	gopkg.in/Knetic/govaluate.v3 v3.0.0 // indirect
)
