module DouBanReptile

go 1.14

require (
	fyne.io/fyne v1.3.1-0.20200616154823-a82c32879cba
	github.com/antchfx/htmlquery v1.2.4-0.20200429125914-f04d0ddf4707
	github.com/antchfx/xpath v1.1.9 // indirect
	github.com/golang/groupcache v0.0.0-20200121045136-8c9f03a8e57e // indirect
	github.com/willf/bitset v1.1.11-0.20200420120211-5e48506878a5
	golang.org/x/net v0.0.0-20200421231249-e086a090c8fd
	gopkg.in/ini.v1 v1.57.0
)
