module gowebapp

go 1.15

require (
	github.com/boltdb/bolt v1.3.1
	github.com/go-sql-driver/mysql v1.5.0
	github.com/gorilla/context v1.1.1
	github.com/gorilla/sessions v1.2.1
	github.com/haisum/recaptcha v0.0.0-20170327142240-7d3b8053900e
	github.com/jmoiron/sqlx v1.3.1
	github.com/josephspurrier/csrfbanana v0.0.0-20170308132943-2c49e3597176
	github.com/julienschmidt/httprouter v1.3.0
	github.com/justinas/alice v1.2.0
	golang.org/x/crypto v0.0.0-20201221181555-eec23a3978ad
	gopkg.in/check.v1 v1.0.0-20201130134442-10cb98267c6c // indirect
	gopkg.in/mgo.v2 v2.0.0-20190816093944-a6b53ec6cb22
	gopkg.in/yaml.v2 v2.4.0 // indirect
)
