module ctrrom

go 1.18

require (
	github.com/getlantern/systray v1.2.1
	github.com/lxn/walk v0.0.0-20210112085537-c389da54e794
	github.com/lxn/win v0.0.0-20210218163916-a377121e959e
)

require (
	github.com/davecgh/go-spew v1.1.1 // indirect
	github.com/pmezard/go-difflib v1.0.0 // indirect
	github.com/stretchr/testify v1.8.1
	go.uber.org/atomic v1.10.0
	gopkg.in/yaml.v3 v3.0.1 // indirect
)

require (
	github.com/elazarl/go-bindata-assetfs v1.0.1
	github.com/getlantern/context v0.0.0-20190109183933-c447772a6520 // indirect
	github.com/getlantern/errors v0.0.0-20190325191628-abdb3e3e36f7 // indirect
	github.com/getlantern/golog v0.0.0-20190830074920-4ef2e798c2d7 // indirect
	github.com/getlantern/hex v0.0.0-20190417191902-c6586a6fe0b7 // indirect
	github.com/getlantern/hidden v0.0.0-20190325191715-f02dbb02be55 // indirect
	github.com/getlantern/ops v0.0.0-20190325191751-d70cb0d6f85f // indirect
	github.com/go-stack/stack v1.8.0 // indirect
	github.com/oxtoacart/bpool v0.0.0-20190530202638-03653db5a59c // indirect
	github.com/sirupsen/logrus v1.9.0
	github.com/zserge/lorca v0.1.10
	golang.org/x/net v0.0.0-20220617184016-355a448f1bc9 // indirect
	golang.org/x/sys v0.0.0-20220715151400-c0bba94af5f8 // indirect
	gopkg.in/Knetic/govaluate.v3 v3.0.0 // indirect
)
